%!PS-Adobe-3.0 EPSF-3.0
%%Creator: MATLAB, The Mathworks, Inc.
%%Title: couette.eps
%%CreationDate: 11/15/2003  14:40:23
%%DocumentNeededFonts: Helvetica
%%+ Courier
%%DocumentProcessColors: Cyan Magenta Yellow Black
%%LanguageLevel: 2
%%Pages: 1
%%BoundingBox:    120   300   500   500
%%EndComments

%%BeginProlog
% MathWorks dictionary
/MathWorks 160 dict begin
% definition operators
/bdef {bind def} bind def
/ldef {load def} bind def
/xdef {exch def} bdef
/xstore {exch store} bdef
% operator abbreviations
/c  /clip ldef
/cc /concat ldef
/cp /closepath ldef
/gr /grestore ldef
/gs /gsave ldef
/mt /moveto ldef
/np /newpath ldef
/cm /currentmatrix ldef
/sm /setmatrix ldef
/rm /rmoveto ldef
/rl /rlineto ldef
/s /show ldef
/sc {setcmykcolor} bdef
/sr /setrgbcolor ldef
/sg /setgray ldef
/w /setlinewidth ldef
/j /setlinejoin ldef
/cap /setlinecap ldef
/rc {rectclip} bdef
/rf {rectfill} bdef
% page state control
/pgsv () def
/bpage {/pgsv save def} bdef
/epage {pgsv restore} bdef
/bplot /gsave ldef
/eplot {stroke grestore} bdef
% orientation switch
/portraitMode 0 def /landscapeMode 1 def /rotateMode 2 def
% coordinate system mappings
/dpi2point 0 def
% font control
/FontSize 0 def
/FMS {/FontSize xstore findfont [FontSize 0 0 FontSize neg 0 0]
  makefont setfont} bdef
/reencode {exch dup where {pop load} {pop StandardEncoding} ifelse
  exch dup 3 1 roll findfont dup length dict begin
  { 1 index /FID ne {def}{pop pop} ifelse } forall
  /Encoding exch def currentdict end definefont pop} bdef
/isroman {findfont /CharStrings get /Agrave known} bdef
/FMSR {3 1 roll 1 index dup isroman {reencode} {pop pop} ifelse
  exch FMS} bdef
/csm {1 dpi2point div -1 dpi2point div scale neg translate
 dup landscapeMode eq {pop -90 rotate}
  {rotateMode eq {90 rotate} if} ifelse} bdef
% line types: solid, dotted, dashed, dotdash
/SO { [] 0 setdash } bdef
/DO { [.5 dpi2point mul 4 dpi2point mul] 0 setdash } bdef
/DA { [6 dpi2point mul] 0 setdash } bdef
/DD { [.5 dpi2point mul 4 dpi2point mul 6 dpi2point mul 4
  dpi2point mul] 0 setdash } bdef
% macros for lines and objects
/L {lineto stroke} bdef
/MP {3 1 roll moveto 1 sub {rlineto} repeat} bdef
/AP {{rlineto} repeat} bdef
/PDlw -1 def
/W {/PDlw currentlinewidth def setlinewidth} def
/PP {closepath eofill} bdef
/DP {closepath stroke} bdef
/MR {4 -2 roll moveto dup  0 exch rlineto exch 0 rlineto
  neg 0 exch rlineto closepath} bdef
/FR {MR stroke} bdef
/PR {MR fill} bdef
/L1i {{currentfile picstr readhexstring pop} image} bdef
/tMatrix matrix def
/MakeOval {newpath tMatrix currentmatrix pop translate scale
0 0 1 0 360 arc tMatrix setmatrix} bdef
/FO {MakeOval stroke} bdef
/PO {MakeOval fill} bdef
/PD {currentlinecap 1 cap 3 1 roll 2 copy mt lineto stroke
   cap PDlw -1 eq not {PDlw w /PDlw -1 def} if} def
/FA {newpath tMatrix currentmatrix pop translate scale
  0 0 1 5 -2 roll arc tMatrix setmatrix stroke} bdef
/PA {newpath tMatrix currentmatrix pop	translate 0 0 moveto scale
  0 0 1 5 -2 roll arc closepath tMatrix setmatrix fill} bdef
/FAn {newpath tMatrix currentmatrix pop translate scale
  0 0 1 5 -2 roll arcn tMatrix setmatrix stroke} bdef
/PAn {newpath tMatrix currentmatrix pop translate 0 0 moveto scale
  0 0 1 5 -2 roll arcn closepath tMatrix setmatrix fill} bdef
/vradius 0 def /hradius 0 def /lry 0 def
/lrx 0 def /uly 0 def /ulx 0 def /rad 0 def
/MRR {/vradius xdef /hradius xdef /lry xdef /lrx xdef /uly xdef
  /ulx xdef newpath tMatrix currentmatrix pop ulx hradius add uly
  vradius add translate hradius vradius scale 0 0 1 180 270 arc 
  tMatrix setmatrix lrx hradius sub uly vradius add translate
  hradius vradius scale 0 0 1 270 360 arc tMatrix setmatrix
  lrx hradius sub lry vradius sub translate hradius vradius scale
  0 0 1 0 90 arc tMatrix setmatrix ulx hradius add lry vradius sub
  translate hradius vradius scale 0 0 1 90 180 arc tMatrix setmatrix
  closepath} bdef
/FRR {MRR stroke } bdef
/PRR {MRR fill } bdef
/MlrRR {/lry xdef /lrx xdef /uly xdef /ulx xdef /rad lry uly sub 2 div def
  newpath tMatrix currentmatrix pop ulx rad add uly rad add translate
  rad rad scale 0 0 1 90 270 arc tMatrix setmatrix lrx rad sub lry rad
  sub translate rad rad scale 0 0 1 270 90 arc tMatrix setmatrix
  closepath} bdef
/FlrRR {MlrRR stroke } bdef
/PlrRR {MlrRR fill } bdef
/MtbRR {/lry xdef /lrx xdef /uly xdef /ulx xdef /rad lrx ulx sub 2 div def
  newpath tMatrix currentmatrix pop ulx rad add uly rad add translate
  rad rad scale 0 0 1 180 360 arc tMatrix setmatrix lrx rad sub lry rad
  sub translate rad rad scale 0 0 1 0 180 arc tMatrix setmatrix
  closepath} bdef
/FtbRR {MtbRR stroke } bdef
/PtbRR {MtbRR fill } bdef
/stri 6 array def /dtri 6 array def
/smat 6 array def /dmat 6 array def
/tmat1 6 array def /tmat2 6 array def /dif 3 array def
/asub {/ind2 exch def /ind1 exch def dup dup
  ind1 get exch ind2 get sub exch } bdef
/tri_to_matrix {
  2 0 asub 3 1 asub 4 0 asub 5 1 asub
  dup 0 get exch 1 get 7 -1 roll astore } bdef
/compute_transform {
  dmat dtri tri_to_matrix tmat1 invertmatrix 
  smat stri tri_to_matrix tmat2 concatmatrix } bdef
/ds {stri astore pop} bdef
/dt {dtri astore pop} bdef
/db {2 copy /cols xdef /rows xdef mul dup string
  currentfile 
  3 index 0 eq {/ASCIIHexDecode filter}
  {/ASCII85Decode filter 3 index 2 eq {/RunLengthDecode filter} if }
  ifelse exch readstring pop
  /bmap xdef pop pop} bdef
/it {gs np dtri aload pop moveto lineto lineto cp c
  cols rows 8 compute_transform 
  {bmap} image gr}bdef
/il {newpath moveto lineto stroke}bdef
currentdict end def
%%EndProlog

%%BeginSetup
MathWorks begin

0 cap

end
%%EndSetup

%%Page: 1 1
%%BeginPageSetup
%%PageBoundingBox:    76   243   542   565
MathWorks begin
bpage
%%EndPageSetup

%%BeginObject: obj1
bplot

/dpi2point 12 def
portraitMode 0204 7344 csm

  715   555  5590  3864 rc
93 dict begin %Colortable dictionary
/c0 { 0 0 0 sr} bdef
/c1 { 1 1 1 sr} bdef
/c2 { 1 0 0 sr} bdef
/c3 { 0 1 0 sr} bdef
/c4 { 0 0 1 sr} bdef
/c5 { 1 1 0 sr} bdef
/c6 { 1 0 1 sr} bdef
/c7 { 0 1 1 sr} bdef
c0
1 j
1 sg
   0    0 6913 5185 rf
6 w
-3077 -484 -2279 516 3078 483 3177 3400 4 MP
PP
2278 -515 -3077 -484 -2279 516 3078 483 3177 3400 5 MP stroke
0 2796 3078 484 0 -2797 3177 3400 4 MP
PP
-3078 -483 0 2796 3078 484 0 -2797 3177 3400 5 MP stroke
0 2796 -2278 516 0 -2797 3177 3400 4 MP
PP
2278 -515 0 2796 -2278 516 0 -2797 3177 3400 5 MP stroke
4 w
DO
SO
6 w
0 sg
%%IncludeResource: font Courier
/Courier /ISOLatin1Encoding 120 FMSR

gs 899 603 5357 3797 rc
5543 1934 mt 5534 1936 L
5543 1949 mt 5511 1958 L
5543 1975 mt 5480 1995 L
5543 2010 mt 5463 2037 L
5543 2054 mt 5493 2057 L
5543 2106 mt 5526 2075 L
5543 2166 mt 5533 2133 L
5543 2232 mt 5545 2208 L
5543 2304 mt 5565 2284 L
5543 2379 mt 5588 2339 L
5543 2457 mt 5604 2390 L
5543 2536 mt 5587 2478 L
5543 2616 mt 5576 2568 L
5543 2694 mt 5562 2653 L
5543 2769 mt 5547 2739 L
5543 2840 mt 5532 2840 L
5543 2906 mt 5531 2919 L
5543 2966 mt 5537 2970 L
5543 3018 mt 5540 3019 L
5543 3063 mt 5544 3063 L
5543 3098 mt 5545 3097 L
5543 3123 mt 5546 3123 L
5543 3139 mt 5544 3139 L
5543 3144 mt 5543 1928 L
0.95 sg
1431 -324 -2505 -394 -1431 324 2505 394 3038 2750 5 MP
PP
0 sg
0 0 1431 -324 -2505 -394 -1431 324 2505 394 3038 2750 6 MP stroke
1716 1876 mt 2002 1921 L
1825 1893 mt 2111 1938 L
2042 1927 mt 2329 1972 L
2151 1944 mt 2437 1989 L
2369 1978 mt 2655 2023 L
2478 1996 mt 2764 2041 L
3038 2750 mt 3038 1535 L
3458 2150 mt 3744 2195 L
3567 2167 mt 3853 2212 L
5481 1942 mt 5481 1943 L
0.95 sg
1431 -324 -2505 -393 -1431 324 2505 393 3038 1535 5 MP
PP
0 sg
0 0 1431 -324 -2505 -393 -1431 324 2505 393 3038 1535 6 MP stroke
5481 1948 mt 5477 1949 L
5481 1963 mt 5462 1968 L
5481 1989 mt 5432 2000 L
5481 2024 mt 5398 2045 L
5481 2068 mt 5402 2083 L
5481 2121 mt 5432 2104 L
5481 2180 mt 5453 2151 L
5481 2246 mt 5477 2229 L
5481 2318 mt 5491 2322 L
5481 2393 mt 5498 2395 L
5481 2471 mt 5523 2427 L
5481 2550 mt 5505 2506 L
5481 2630 mt 5483 2596 L
5481 2708 mt 5494 2650 L
5481 2783 mt 5498 2714 L
5481 2854 mt 5497 2790 L
5481 2920 mt 5487 2889 L
5481 2980 mt 5478 2974 L
5481 3033 mt 5481 3030 L
5481 3077 mt 5481 3074 L
5481 3112 mt 5484 3109 L
5481 3137 mt 5485 3136 L
5481 3153 mt 5483 3153 L
5419 1962 mt 5414 1963 L
5419 1977 mt 5400 1978 L
5419 2003 mt 5373 1999 L
5419 2038 mt 5344 2031 L
5419 2082 mt 5339 2077 L
5419 2135 mt 5371 2128 L
5419 2194 mt 5410 2199 L
5419 2260 mt 5435 2283 L
5419 2332 mt 5430 2363 L
5419 2407 mt 5401 2433 L
5419 2485 mt 5430 2466 L
5419 2564 mt 5437 2526 L
5419 2644 mt 5385 2633 L
5419 2722 mt 5397 2672 L
5419 2797 mt 5425 2696 L
5419 2868 mt 5455 2747 L
5419 2934 mt 5469 2830 L
5419 2994 mt 5455 2941 L
5419 3047 mt 5434 3030 L
5419 3091 mt 5426 3086 L
5419 3126 mt 5426 3124 L
5419 3152 mt 5425 3150 L
5419 3167 mt 5421 3167 L
5357 1976 mt 5348 1978 L
5357 1991 mt 5324 1995 L
5357 2017 mt 5299 2016 L
5357 2052 mt 5292 2040 L
5357 2096 mt 5315 2085 L
5357 2149 mt 5362 2156 L
5357 2208 mt 5395 2242 L
5357 2275 mt 5393 2324 L
5357 2346 mt 5360 2387 L
5357 2421 mt 5308 2437 L
5357 2499 mt 5340 2487 L
5357 2578 mt 5373 2528 L
5357 2658 mt 5320 2634 L
5357 2736 mt 5310 2723 L
5357 2811 mt 5357 2771 L
5357 2882 mt 5401 2823 L
5357 2949 mt 5432 2863 L
5357 3008 mt 5438 2928 L
5357 3061 mt 5404 3027 L
5357 3105 mt 5378 3098 L
5357 3140 mt 5367 3139 L
5357 3166 mt 5362 3165 L
5357 3181 mt 5358 3181 L
5294 1990 mt 5285 1992 L
5294 2005 mt 5261 2014 L
5294 2031 mt 5239 2044 L
5294 2066 mt 5251 2074 L
5294 2110 mt 5305 2109 L
5294 2163 mt 5358 2161 L
5294 2223 mt 5370 2215 L
5294 2289 mt 5342 2278 L
5294 2360 mt 5286 2348 L
5294 2435 mt 5239 2409 L
5294 2513 mt 5274 2490 L
5294 2593 mt 5304 2549 L
5294 2672 mt 5289 2637 L
5294 2750 mt 5274 2767 L
5294 2825 mt 5304 2868 L
5294 2896 mt 5333 2927 L
5294 2963 mt 5345 2962 L
5294 3022 mt 5372 2978 L
5294 3075 mt 5360 3040 L
5294 3119 mt 5324 3108 L
5294 3154 mt 5306 3151 L
5294 3180 mt 5300 3178 L
5294 3195 mt 5296 3195 L
5232 2004 mt 5228 2005 L
5232 2020 mt 5216 2026 L
5232 2045 mt 5202 2063 L
5232 2080 mt 5213 2100 L
5232 2124 mt 5261 2124 L
5232 2177 mt 5295 2153 L
5232 2237 mt 5302 2174 L
5232 2303 mt 5288 2207 L
5232 2374 mt 5234 2283 L
5232 2449 mt 5202 2383 L
5232 2527 mt 5225 2499 L
5232 2607 mt 5239 2601 L
5232 2686 mt 5249 2696 L
5232 2764 mt 5249 2808 L
5232 2839 mt 5248 2905 L
5232 2911 mt 5252 2958 L
5232 2977 mt 5247 3010 L
5232 3036 mt 5267 3033 L
5232 3089 mt 5282 3062 L
5232 3133 mt 5264 3117 L
5232 3168 mt 5248 3163 L
5232 3194 mt 5237 3193 L
5232 3209 mt 5233 3209 L
5170 2018 mt 5171 2018 L
5170 2034 mt 5169 2035 L
5170 2059 mt 5163 2068 L
5170 2094 mt 5162 2108 L
5170 2139 mt 5176 2140 L
5170 2191 mt 5185 2178 L
5170 2251 mt 5199 2212 L
5170 2317 mt 5209 2241 L
5170 2388 mt 5182 2308 L
5170 2463 mt 5162 2416 L
5170 2541 mt 5168 2535 L
5170 2621 mt 5178 2655 L
5170 2700 mt 5189 2769 L
5170 2778 mt 5189 2855 L
5170 2853 mt 5172 2921 L
5170 2925 mt 5160 2970 L
5170 2991 mt 5161 3017 L
5170 3051 mt 5163 3052 L
5170 3103 mt 5201 3071 L
5170 3147 mt 5213 3116 L
5170 3182 mt 5196 3167 L
5170 3208 mt 5178 3204 L
5108 2048 mt 5109 2047 L
5108 2073 mt 5107 2073 L
5108 2108 mt 5098 2113 L
5108 2153 mt 5090 2162 L
5108 2205 mt 5093 2220 L
5108 2265 mt 5103 2284 L
5108 2331 mt 5107 2347 L
5108 2402 mt 5099 2426 L
5108 2478 mt 5090 2514 L
5108 2555 mt 5099 2599 L
5108 2635 mt 5120 2704 L
5108 2714 mt 5126 2811 L
5108 2792 mt 5112 2889 L
5108 2867 mt 5093 2950 L
5108 2939 mt 5071 3011 L
5108 3005 mt 5068 3056 L
5108 3065 mt 5062 3086 L
5108 3117 mt 5127 3089 L
5108 3161 mt 5167 3116 L
5108 3196 mt 5161 3163 L
5108 3222 mt 5133 3210 L
5108 3237 mt 5113 3236 L
5046 2046 mt 5044 2046 L
5046 2062 mt 5043 2062 L
5046 2087 mt 5040 2087 L
5046 2123 mt 5033 2124 L
5046 2167 mt 5026 2176 L
5046 2219 mt 5034 2234 L
5046 2279 mt 5044 2304 L
5046 2345 mt 5032 2398 L
5046 2416 mt 5013 2506 L
5046 2492 mt 5012 2597 L
5046 2570 mt 5037 2668 L
5046 2649 mt 5066 2754 L
5046 2728 mt 5066 2836 L
5046 2806 mt 5045 2900 L
5046 2882 mt 5025 2968 L
5046 2953 mt 4999 3039 L
5046 3019 mt 4977 3106 L
5046 3079 mt 4965 3152 L
5046 3131 mt 5036 3148 L
5046 3175 mt 5103 3152 L
5046 3210 mt 5127 3179 L
5046 3236 mt 5098 3219 L
5046 3252 mt 5060 3248 L
4983 2060 mt 4981 2061 L
4983 2076 mt 4978 2077 L
4983 2101 mt 4973 2105 L
4983 2137 mt 4968 2143 L
4983 2181 mt 4969 2190 L
4983 2233 mt 4983 2242 L
4983 2293 mt 4997 2307 L
4983 2359 mt 4986 2391 L
4983 2430 mt 4962 2494 L
4983 2506 mt 4962 2605 L
4983 2584 mt 4989 2701 L
4983 2663 mt 5010 2780 L
4983 2742 mt 5001 2847 L
4983 2896 mt 4963 2977 L
4983 2820 mt 4983 2907 L
4983 2967 mt 4936 3048 L
4983 3033 mt 4910 3121 L
4983 3093 mt 4890 3189 L
4983 3145 mt 4937 3213 L
4983 3189 mt 5017 3219 L
4983 3225 mt 5058 3224 L
4983 3250 mt 5037 3241 L
4983 3266 mt 5000 3262 L
gr

%%IncludeResource: font Helvetica
/Helvetica /ISOLatin1Encoding 120 FMSR

4926 3523 mt 
(z) s
gs 899 603 5357 3797 rc
4921 2074 mt 4919 2075 L
4921 2090 mt 4917 2092 L
4921 2116 mt 4915 2120 L
4921 2151 mt 4913 2162 L
4921 2195 mt 4917 2215 L
4921 2247 mt 4929 2275 L
4921 2307 mt 4933 2336 L
4921 2373 mt 4924 2396 L
4921 2444 mt 4920 2475 L
4921 2520 mt 4929 2583 L
4921 2598 mt 4940 2690 L
4921 2677 mt 4943 2769 L
4921 2756 mt 4935 2837 L
4921 2834 mt 4922 2909 L
4921 2910 mt 4899 2987 L
4921 2981 mt 4869 3061 L
4921 3047 mt 4848 3123 L
4921 3107 mt 4834 3185 L
4921 3159 mt 4862 3234 L
4921 3239 mt 4949 3261 L
4921 3203 mt 4922 3258 L
4921 3264 mt 4941 3267 L
4921 3280 mt 4927 3279 L
4859 2089 mt 4858 2089 L
4859 2104 mt 4858 2105 L
4859 2130 mt 4862 2132 L
4859 2165 mt 4868 2173 L
4859 2209 mt 4876 2231 L
4859 2261 mt 4880 2295 L
4859 2321 mt 4869 2352 L
4859 2387 mt 4857 2418 L
4859 2459 mt 4866 2505 L
4859 2534 mt 4881 2597 L
4859 2612 mt 4879 2677 L
4859 2691 mt 4872 2753 L
4859 2771 mt 4868 2829 L
4859 2848 mt 4861 2901 L
4859 2924 mt 4836 2975 L
4859 2995 mt 4799 3054 L
4859 3061 mt 4776 3125 L
4859 3121 mt 4776 3184 L
4859 3173 mt 4805 3222 L
4859 3218 mt 4828 3255 L
4859 3253 mt 4841 3273 L
4859 3278 mt 4846 3286 L
4859 3294 mt 4855 3295 L
4797 2118 mt 4799 2118 L
4797 2144 mt 4807 2145 L
4797 2179 mt 4819 2183 L
4797 2223 mt 4831 2234 L
4797 2275 mt 4829 2292 L
4797 2335 mt 4823 2355 L
4797 2401 mt 4818 2440 L
4797 2473 mt 4813 2544 L
4797 2548 mt 4812 2633 L
4797 2626 mt 4806 2692 L
4797 2705 mt 4804 2749 L
4797 2785 mt 4798 2819 L
4797 2863 mt 4794 2886 L
4797 2938 mt 4769 2952 L
4797 3009 mt 4730 3028 L
4797 3075 mt 4709 3112 L
4797 3135 mt 4722 3180 L
4797 3187 mt 4743 3212 L
4797 3232 mt 4753 3252 L
4797 3267 mt 4768 3282 L
4797 3292 mt 4775 3300 L
4797 3308 mt 4789 3310 L
4734 2117 mt 4736 2117 L
4734 2132 mt 4740 2132 L
4734 2158 mt 4750 2158 L
4734 2193 mt 4763 2197 L
4734 2237 mt 4772 2245 L
4734 2290 mt 4774 2304 L
4734 2349 mt 4781 2384 L
4734 2415 mt 4779 2475 L
4734 2487 mt 4759 2566 L
4734 2562 mt 4736 2651 L
4734 2640 mt 4725 2715 L
4734 2719 mt 4728 2752 L
4734 2799 mt 4731 2791 L
4734 2877 mt 4726 2860 L
4734 2952 mt 4693 2941 L
4734 3023 mt 4660 3020 L
4734 3089 mt 4649 3094 L
4734 3149 mt 4669 3153 L
4734 3202 mt 4689 3206 L
4734 3246 mt 4708 3262 L
4734 3281 mt 4715 3296 L
4734 3306 mt 4717 3313 L
4734 3322 mt 4728 3323 L
4672 2131 mt 4674 2130 L
4672 2146 mt 4682 2145 L
4672 2172 mt 4695 2171 L
4672 2207 mt 4707 2209 L
4672 2251 mt 4715 2260 L
4672 2304 mt 4728 2326 L
4672 2363 mt 4733 2412 L
4672 2430 mt 4714 2500 L
4672 2501 mt 4689 2576 L
4672 2576 mt 4662 2656 L
4672 2654 mt 4644 2725 L
4672 2733 mt 4643 2768 L
4672 2813 mt 4662 2789 L
4672 2891 mt 4665 2837 L
4672 2966 mt 4626 2929 L
4672 3037 mt 4596 3022 L
4672 3103 mt 4580 3090 L
4672 3163 mt 4598 3139 L
4672 3216 mt 4641 3209 L
4672 3260 mt 4665 3266 L
4672 3295 mt 4661 3301 L
4672 3321 mt 4660 3324 L
4672 3336 mt 4668 3337 L
4610 2145 mt 4613 2144 L
4610 2160 mt 4624 2158 L
4610 2186 mt 4638 2183 L
4610 2221 mt 4652 2219 L
4610 2265 mt 4668 2267 L
4610 2318 mt 4688 2331 L
4610 2378 mt 4686 2403 L
4610 2444 mt 4654 2486 L
4610 2515 mt 4621 2572 L
4610 2590 mt 4596 2657 L
4610 2668 mt 4578 2730 L
4610 2748 mt 4573 2794 L
4610 2827 mt 4587 2839 L
4610 2905 mt 4599 2860 L
4610 2980 mt 4575 2922 L
4610 3051 mt 4543 3014 L
4610 3118 mt 4513 3090 L
4610 3177 mt 4524 3161 L
4610 3230 mt 4573 3229 L
4610 3274 mt 4595 3272 L
4610 3309 mt 4601 3306 L
4610 3335 mt 4604 3334 L
4610 3350 mt 4608 3351 L
4548 2159 mt 4552 2158 L
4548 2175 mt 4565 2172 L
4548 2200 mt 4580 2197 L
4548 2235 mt 4595 2234 L
4548 2279 mt 4620 2280 L
4548 2332 mt 4637 2338 L
4548 2392 mt 4631 2400 L
4548 2458 mt 4608 2468 L
4548 2529 mt 4572 2554 L
4548 2604 mt 4543 2648 L
4548 2682 mt 4524 2734 L
4548 2762 mt 4520 2804 L
4548 2841 mt 4521 2875 L
4548 2919 mt 4525 2916 L
4548 2994 mt 4514 2953 L
4548 3066 mt 4482 3025 L
4548 3132 mt 4465 3095 L
4548 3191 mt 4479 3182 L
4548 3244 mt 4504 3248 L
4548 3288 mt 4523 3291 L
4548 3323 mt 4539 3324 L
4548 3349 mt 4545 3349 L
4548 3364 mt 4547 3364 L
4485 2173 mt 4492 2172 L
4485 2189 mt 4508 2185 L
4485 2214 mt 4526 2209 L
4485 2249 mt 4544 2248 L
4485 2293 mt 4568 2298 L
4485 2346 mt 4572 2354 L
4485 2406 mt 4557 2416 L
4485 2472 mt 4544 2473 L
4485 2543 mt 4522 2541 L
4485 2618 mt 4495 2630 L
4485 2696 mt 4471 2730 L
4485 2776 mt 4463 2805 L
4485 2855 mt 4471 2868 L
4485 2933 mt 4460 2936 L
4485 3008 mt 4428 2991 L
4485 3080 mt 4405 3057 L
4485 3146 mt 4420 3117 L
4485 3205 mt 4450 3186 L
4485 3258 mt 4466 3252 L
4485 3302 mt 4479 3305 L
4485 3337 mt 4483 3340 L
4485 3363 mt 4483 3364 L
4485 3378 mt 4484 3379 L
4423 2187 mt 4431 2185 L
4423 2203 mt 4449 2197 L
4423 2228 mt 4470 2219 L
4423 2263 mt 4494 2253 L
4423 2308 mt 4511 2298 L
4423 2360 mt 4505 2349 L
4423 2420 mt 4488 2408 L
4423 2486 mt 4471 2472 L
4423 2557 mt 4461 2536 L
4423 2632 mt 4445 2619 L
4423 2710 mt 4419 2720 L
4423 2790 mt 4396 2819 L
4423 2869 mt 4408 2879 L
4423 2947 mt 4401 2925 L
4423 3022 mt 4348 2993 L
4423 3094 mt 4332 3078 L
4423 3160 mt 4368 3138 L
4423 3220 mt 4403 3197 L
4423 3272 mt 4434 3260 L
4423 3316 mt 4442 3312 L
4423 3351 mt 4432 3349 L
4423 3377 mt 4425 3376 L
4423 3392 mt 4424 3392 L
4361 2201 mt 4368 2200 L
4361 2217 mt 4384 2211 L
4361 2242 mt 4403 2231 L
4361 2277 mt 4426 2260 L
4361 2322 mt 4437 2293 L
4361 2374 mt 4434 2335 L
4361 2434 mt 4429 2385 L
4361 2500 mt 4414 2453 L
4361 2571 mt 4404 2530 L
4361 2647 mt 4395 2615 L
4361 2725 mt 4374 2708 L
4361 2804 mt 4344 2821 L
4361 2883 mt 4330 2909 L
4361 2961 mt 4330 2944 L
4361 3036 mt 4298 3003 L
4361 3108 mt 4277 3096 L
4361 3174 mt 4306 3150 L
4361 3234 mt 4339 3217 L
4361 3286 mt 4369 3284 L
4361 3330 mt 4379 3329 L
4361 3365 mt 4374 3364 L
4361 3391 mt 4368 3390 L
4361 3406 mt 4363 3406 L
4299 2215 mt 4303 2214 L
4299 2231 mt 4313 2227 L
4299 2256 mt 4325 2248 L
4299 2292 mt 4341 2276 L
4299 2336 mt 4348 2311 L
4299 2388 mt 4350 2352 L
4299 2448 mt 4356 2393 L
4299 2514 mt 4355 2449 L
4299 2585 mt 4351 2525 L
4299 2661 mt 4348 2607 L
4299 2739 mt 4339 2693 L
4299 2818 mt 4311 2796 L
4299 2897 mt 4276 2899 L
4299 2975 mt 4262 2976 L
4299 3051 mt 4250 3042 L
4299 3122 mt 4222 3112 L
4299 3188 mt 4233 3164 L
4299 3248 mt 4271 3233 L
4299 3300 mt 4290 3302 L
4299 3344 mt 4301 3349 L
4299 3380 mt 4303 3382 L
4299 3405 mt 4302 3405 L
4299 3421 mt 4300 3420 L
4236 2229 mt 4237 2229 L
4236 2245 mt 4237 2243 L
4236 2270 mt 4241 2263 L
4236 2306 mt 4257 2286 L
4236 2350 mt 4263 2326 L
4236 2402 mt 4262 2376 L
4236 2462 mt 4269 2421 L
4236 2528 mt 4280 2467 L
4236 2599 mt 4290 2527 L
4236 2675 mt 4299 2598 L
4236 2753 mt 4302 2683 L
4236 2832 mt 4282 2778 L
4236 2911 mt 4253 2873 L
4236 2989 mt 4217 2971 L
4236 3065 mt 4184 3045 L
4236 3136 mt 4159 3094 L
4236 3202 mt 4165 3169 L
4236 3262 mt 4205 3246 L
4236 3314 mt 4225 3307 L
4236 3358 mt 4232 3357 L
4236 3394 mt 4234 3393 L
4236 3419 mt 4235 3419 L
4174 2244 mt 4169 2245 L
4174 2259 mt 4155 2261 L
4174 2285 mt 4148 2282 L
4174 2320 mt 4167 2298 L
4174 2364 mt 4185 2323 L
4174 2416 mt 4186 2377 L
4174 2476 mt 4193 2440 L
4174 2542 mt 4207 2495 L
4174 2614 mt 4224 2543 L
4174 2689 mt 4243 2602 L
4174 2767 mt 4250 2687 L
4174 2846 mt 4240 2789 L
4174 2925 mt 4220 2884 L
4174 3003 mt 4176 2957 L
4174 3079 mt 4119 3019 L
4174 3150 mt 4106 3079 L
4174 3216 mt 4124 3172 L
4174 3276 mt 4152 3260 L
4174 3328 mt 4167 3318 L
4174 3373 mt 4172 3365 L
4174 3408 mt 4175 3403 L
4174 3433 mt 4176 3432 L
4174 3449 mt 4175 3449 L
4112 2252 mt 4398 2297 L
4112 2258 mt 4386 2301 L
4112 2273 mt 4351 2311 L
4112 2299 mt 4288 2326 L
4112 2334 mt 4201 2349 L
4112 2378 mt 4122 2384 L
4112 2430 mt 4077 2432 L
4112 2490 mt 4051 2490 L
4112 2556 mt 4040 2555 L
4112 2628 mt 4047 2623 L
4112 2703 mt 4066 2696 L
4112 2781 mt 4083 2780 L
4112 2860 mt 4094 2867 L
4112 2940 mt 4105 2948 L
4112 3018 mt 4123 3019 L
4112 3093 mt 4144 3083 L
4112 3164 mt 4140 3146 L
4112 3230 mt 4099 3213 L
4112 3290 mt 4063 3269 L
4112 3342 mt 3993 3315 L
4112 3387 mt 3934 3356 L
4112 3422 mt 3894 3387 L
4003 3430 mt 3749 3390 L
4112 3447 mt 3860 3408 L
4112 3463 mt 3835 3419 L
4112 3468 mt 3826 3423 L
4112 2258 mt 4102 2260 L
4112 2273 mt 4077 2280 L
4112 2299 mt 4054 2309 L
4112 2334 mt 4063 2333 L
4112 2378 mt 4098 2345 L
4112 2430 mt 4116 2383 L
4112 2490 mt 4123 2456 L
4112 2556 mt 4134 2525 L
4112 2628 mt 4153 2579 L
4112 2703 mt 4175 2628 L
4112 2781 mt 4183 2703 L
4112 2860 mt 4177 2803 L
4112 2940 mt 4159 2903 L
4112 3018 mt 4123 2975 L
4112 3093 mt 4081 3041 L
4112 3164 mt 4070 3132 L
4112 3230 mt 4090 3212 L
4112 3290 mt 4105 3280 L
4112 3342 mt 4107 3339 L
4112 3387 mt 4112 3384 L
4112 3422 mt 4116 3420 L
4112 3447 mt 4116 3446 L
4112 3463 mt 4113 3463 L
4112 3468 mt 4112 2252 L
4003 2235 mt 4289 2280 L
4003 2240 mt 4279 2284 L
4003 2256 mt 4246 2294 L
4003 2282 mt 4184 2309 L
4003 2317 mt 4096 2329 L
4003 2361 mt 4014 2363 L
4003 2413 mt 3975 2414 L
4003 2473 mt 3954 2476 L
4003 2539 mt 3936 2545 L
4003 2611 mt 3932 2615 L
4003 2686 mt 3948 2686 L
4003 2764 mt 3968 2763 L
4003 2843 mt 3975 2843 L
4003 2922 mt 3982 2920 L
4003 3000 mt 3993 2993 L
4003 3076 mt 4009 3063 L
4003 3147 mt 4035 3132 L
4003 3213 mt 4006 3197 L
4003 3273 mt 3963 3255 L
4003 3325 mt 3898 3300 L
4003 3369 mt 3830 3338 L
4003 3405 mt 3783 3369 L
3894 3429 mt 3616 3385 L
4003 3446 mt 3725 3402 L
3785 3417 mt 3499 3372 L
4003 3451 mt 3717 3406 L
3894 2218 mt 4180 2263 L
3894 2223 mt 4171 2267 L
3894 2239 mt 4141 2277 L
3894 2264 mt 4082 2292 L
3894 2300 mt 3993 2311 L
3894 2344 mt 3910 2341 L
3894 2396 mt 3865 2392 L
3894 2456 mt 3850 2455 L
3894 2522 mt 3836 2524 L
3894 2593 mt 3823 2595 L
3894 2669 mt 3834 2666 L
3894 2747 mt 3868 2743 L
3894 2826 mt 3873 2826 L
3894 2905 mt 3869 2906 L
3894 2983 mt 3875 2987 L
3894 3059 mt 3893 3066 L
3894 3130 mt 3922 3132 L
3894 3196 mt 3915 3186 L
3894 3256 mt 3871 3241 L
3894 3308 mt 3806 3286 L
3894 3352 mt 3728 3322 L
3894 3388 mt 3676 3352 L
3894 3413 mt 3640 3373 L
3894 3434 mt 3608 3389 L
3785 2201 mt 4071 2246 L
3785 2206 mt 4063 2250 L
3785 2222 mt 4035 2260 L
3785 2247 mt 3983 2275 L
3785 2282 mt 3898 2295 L
3785 2327 mt 3813 2324 L
3785 2379 mt 3765 2374 L
3785 2439 mt 3741 2437 L
3785 2505 mt 3726 2502 L
3785 2576 mt 3713 2568 L
3785 2652 mt 3729 2640 L
3785 2730 mt 3775 2717 L
3785 2809 mt 3781 2798 L
3785 2888 mt 3776 2885 L
3785 2966 mt 3786 2975 L
3785 3041 mt 3792 3060 L
3785 3113 mt 3806 3127 L
3785 3179 mt 3812 3185 L
3785 3239 mt 3781 3234 L
3785 3291 mt 3721 3276 L
3785 3335 mt 3635 3309 L
3785 3370 mt 3571 3336 L
3785 3396 mt 3532 3356 L
3676 3394 mt 3399 3351 L
3785 3411 mt 3508 3368 L
3676 2184 mt 3962 2229 L
3676 2189 mt 3953 2233 L
3676 2205 mt 3926 2243 L
3676 2230 mt 3883 2259 L
3676 2265 mt 3817 2282 L
3676 2310 mt 3728 2313 L
3676 2362 mt 3677 2356 L
3676 2422 mt 3644 2417 L
3676 2488 mt 3619 2482 L
3676 2559 mt 3607 2551 L
3676 2634 mt 3622 2632 L
3676 2712 mt 3655 2710 L
3676 2792 mt 3670 2788 L
3676 2871 mt 3676 2874 L
3676 2949 mt 3689 2955 L
3676 3024 mt 3690 3035 L
3676 3096 mt 3695 3116 L
3676 3162 mt 3701 3185 L
3676 3222 mt 3682 3231 L
3676 3274 mt 3638 3270 L
3676 3318 mt 3548 3299 L
3676 3353 mt 3470 3321 L
3676 3379 mt 3424 3340 L
3676 3400 mt 3390 3355 L
3567 2172 mt 3844 2215 L
3567 2188 mt 3816 2226 L
3567 2213 mt 3778 2245 L
3567 2248 mt 3732 2273 L
3567 2292 mt 3659 2307 L
3567 2345 mt 3585 2348 L
3567 2405 mt 3553 2398 L
3567 2471 mt 3528 2464 L
3567 2542 mt 3515 2543 L
3567 2617 mt 3521 2632 L
3567 2695 mt 3535 2719 L
3567 2775 mt 3551 2802 L
3567 2854 mt 3559 2881 L
3567 2932 mt 3568 2955 L
3567 3007 mt 3580 3023 L
3567 3079 mt 3596 3100 L
3567 3145 mt 3594 3172 L
3567 3204 mt 3571 3222 L
3567 3257 mt 3547 3258 L
3567 3301 mt 3464 3286 L
3567 3336 mt 3373 3306 L
3567 3362 mt 3318 3323 L
3567 3377 mt 3290 3334 L
3567 3382 mt 3281 3337 L
3458 2155 mt 3735 2198 L
3458 2170 mt 3708 2210 L
3458 2196 mt 3672 2232 L
3458 2231 mt 3632 2264 L
3458 2275 mt 3584 2303 L
3458 2328 mt 3503 2346 L
3458 2387 mt 3452 2392 L
3458 2454 mt 3443 2454 L
3458 2525 mt 3437 2533 L
3458 2600 mt 3434 2619 L
3458 2678 mt 3432 2706 L
3458 2758 mt 3431 2786 L
3458 2837 mt 3440 2862 L
3458 2915 mt 3452 2935 L
3458 2990 mt 3457 3003 L
3458 3061 mt 3492 3074 L
3458 3128 mt 3496 3150 L
3458 3187 mt 3467 3209 L
3458 3240 mt 3447 3246 L
3458 3284 mt 3378 3272 L
3458 3319 mt 3279 3291 L
3349 3327 mt 3114 3290 L
3458 3345 mt 3215 3306 L
3458 3360 mt 3182 3317 L
3458 3365 mt 3172 3320 L
3349 2133 mt 3636 2178 L
3349 2138 mt 3626 2181 L
3349 2153 mt 3600 2194 L
3349 2179 mt 3562 2217 L
3349 2214 mt 3519 2250 L
3349 2258 mt 3480 2288 L
3349 2311 mt 3426 2328 L
3349 2370 mt 3349 2375 L
3349 2436 mt 3349 2434 L
3349 2508 mt 3354 2505 L
3349 2583 mt 3348 2590 L
3349 2661 mt 3326 2674 L
3349 2740 mt 3307 2744 L
3349 2820 mt 3315 2814 L
3349 2898 mt 3328 2880 L
3349 2973 mt 3341 2954 L
3349 3044 mt 3380 3047 L
3349 3110 mt 3395 3132 L
3349 3170 mt 3364 3195 L
3349 3223 mt 3335 3235 L
3349 3267 mt 3283 3259 L
3349 3302 mt 3187 3276 L
3349 3343 mt 3076 3300 L
3349 3348 mt 3063 3303 L
3241 2115 mt 3527 2160 L
3241 2121 mt 3517 2164 L
3241 2136 mt 3489 2176 L
3241 2162 mt 3447 2198 L
3241 2197 mt 3397 2228 L
3241 2241 mt 3356 2263 L
3241 2293 mt 3319 2298 L
3241 2353 mt 3248 2344 L
3241 2419 mt 3237 2404 L
3241 2491 mt 3252 2469 L
3241 2566 mt 3254 2555 L
3241 2644 mt 3222 2648 L
3241 2723 mt 3192 2723 L
3241 2803 mt 3186 2783 L
3241 2881 mt 3200 2853 L
3241 2956 mt 3236 2933 L
3241 3027 mt 3272 3025 L
3241 3093 mt 3284 3109 L
3241 3153 mt 3247 3168 L
3241 3205 mt 3210 3212 L
3241 3250 mt 3174 3244 L
3241 3285 mt 3090 3262 L
3241 3310 mt 3012 3275 L
3241 3326 mt 2968 3283 L
3241 3331 mt 2954 3286 L
3132 2098 mt 3418 2143 L
3132 2104 mt 3407 2147 L
3132 2119 mt 3376 2158 L
3132 2145 mt 3328 2179 L
3132 2180 mt 3270 2206 L
3132 2224 mt 3228 2237 L
3132 2276 mt 3197 2276 L
3132 2336 mt 3145 2328 L
3132 2402 mt 3114 2391 L
3132 2474 mt 3131 2454 L
3132 2549 mt 3148 2532 L
3132 2627 mt 3128 2627 L
3132 2706 mt 3092 2714 L
3132 2785 mt 3077 2788 L
3132 2863 mt 3091 2865 L
3132 2939 mt 3117 2933 L
3132 3010 mt 3146 3002 L
3132 3076 mt 3167 3070 L
3132 3136 mt 3128 3129 L
3132 3188 mt 3085 3181 L
3132 3233 mt 3057 3223 L
3132 3268 mt 2987 3246 L
3132 3293 mt 2910 3258 L
3132 3309 mt 2861 3266 L
3132 3314 mt 2846 3269 L
3023 2081 mt 3309 2126 L
3023 2086 mt 3297 2130 L
3023 2102 mt 3264 2140 L
3023 2127 mt 3210 2158 L
3023 2163 mt 3146 2182 L
3023 2207 mt 3098 2213 L
3023 2259 mt 3082 2255 L
3023 2319 mt 3046 2313 L
3023 2385 mt 3003 2385 L
3023 2456 mt 3007 2455 L
3023 2532 mt 3039 2527 L
3023 2610 mt 3027 2606 L
3023 2689 mt 3007 2693 L
3023 2768 mt 2993 2795 L
3023 2846 mt 2967 2853 L
3023 2922 mt 2984 2903 L
3023 2993 mt 3002 2975 L
3023 3059 mt 3028 3036 L
3023 3119 mt 3014 3093 L
3023 3171 mt 2967 3153 L
3023 3215 mt 2939 3201 L
3023 3251 mt 2879 3228 L
2914 3259 mt 2696 3224 L
3023 3276 mt 2805 3242 L
2914 3275 mt 2645 3232 L
3023 3292 mt 2754 3249 L
2805 3263 mt 2519 3218 L
2914 3280 mt 2628 3235 L
3023 3297 mt 2737 3252 L
2914 2064 mt 3200 2109 L
2914 2069 mt 3188 2112 L
2914 2085 mt 3151 2122 L
2914 2110 mt 3094 2137 L
2914 2146 mt 3027 2158 L
2914 2190 mt 2972 2187 L
2914 2242 mt 2959 2227 L
2914 2302 mt 2943 2284 L
2914 2368 mt 2908 2364 L
2914 2439 mt 2893 2446 L
2914 2515 mt 2936 2512 L
2914 2593 mt 2916 2572 L
2914 2672 mt 2921 2657 L
2914 2751 mt 2906 2754 L
2914 2829 mt 2832 2813 L
2914 2905 mt 2875 2873 L
2914 2976 mt 2889 2943 L
2914 3042 mt 2883 3004 L
2914 3102 mt 2887 3061 L
2914 3154 mt 2853 3126 L
2914 3198 mt 2818 3178 L
2914 3233 mt 2764 3208 L
2805 2047 mt 3091 2092 L
2805 2052 mt 3078 2095 L
2805 2068 mt 3039 2104 L
2805 2093 mt 2979 2118 L
2805 2128 mt 2911 2138 L
2805 2173 mt 2859 2166 L
2805 2225 mt 2837 2209 L
2805 2285 mt 2830 2272 L
2805 2351 mt 2813 2353 L
2805 2422 mt 2794 2431 L
2805 2497 mt 2826 2482 L
2805 2575 mt 2800 2527 L
2805 2655 mt 2804 2611 L
2805 2734 mt 2797 2686 L
2805 2812 mt 2739 2778 L
2805 2887 mt 2782 2864 L
2805 2959 mt 2796 2913 L
2805 3025 mt 2771 2964 L
2805 3085 mt 2756 3028 L
2805 3137 mt 2732 3097 L
2805 3181 mt 2694 3154 L
2805 3216 mt 2645 3188 L
2805 3242 mt 2583 3206 L
2805 3257 mt 2536 3215 L
gr

2665 3511 mt 
(x) s
gs 899 603 5357 3797 rc
2696 2030 mt 2982 2075 L
2696 2035 mt 2968 2078 L
2696 2051 mt 2926 2086 L
2696 2076 mt 2865 2100 L
2696 2111 mt 2802 2121 L
2696 2155 mt 2751 2153 L
2696 2208 mt 2730 2202 L
2696 2268 mt 2721 2272 L
2696 2334 mt 2712 2351 L
2696 2405 mt 2700 2421 L
2696 2480 mt 2702 2470 L
2696 2558 mt 2689 2516 L
2696 2638 mt 2681 2591 L
2696 2717 mt 2688 2661 L
2696 2795 mt 2666 2755 L
2696 2870 mt 2672 2841 L
2696 2942 mt 2676 2897 L
2696 3008 mt 2667 2946 L
2696 3067 mt 2646 3008 L
2696 3120 mt 2615 3077 L
2696 3164 mt 2576 3134 L
2696 3199 mt 2528 3169 L
2696 3225 mt 2471 3189 L
2696 3240 mt 2426 3198 L
2696 3245 mt 2410 3200 L
2587 2013 mt 2873 2058 L
2587 2018 mt 2858 2060 L
2587 2033 mt 2814 2069 L
2587 2059 mt 2751 2083 L
2587 2094 mt 2691 2107 L
2587 2138 mt 2643 2143 L
2587 2191 mt 2618 2193 L
2587 2251 mt 2608 2256 L
2587 2317 mt 2601 2329 L
2587 2388 mt 2593 2402 L
2587 2463 mt 2581 2473 L
2587 2541 mt 2583 2539 L
2587 2621 mt 2577 2608 L
2587 2700 mt 2584 2680 L
2587 2778 mt 2573 2753 L
2587 2853 mt 2555 2826 L
2587 2924 mt 2553 2896 L
2587 2991 mt 2539 2961 L
2587 3050 mt 2531 3017 L
2587 3103 mt 2505 3072 L
2587 3147 mt 2464 3121 L
2587 3182 mt 2414 3153 L
2587 3208 mt 2359 3172 L
2478 3206 mt 2206 3163 L
2587 3223 mt 2317 3181 L
2587 3228 mt 2301 3183 L
2478 2001 mt 2748 2043 L
2478 2016 mt 2704 2052 L
2478 2042 mt 2638 2067 L
2478 2077 mt 2573 2092 L
2478 2121 mt 2528 2130 L
2478 2174 mt 2497 2180 L
2478 2233 mt 2482 2236 L
2478 2300 mt 2475 2297 L
2478 2371 mt 2468 2370 L
2478 2446 mt 2464 2452 L
2478 2524 mt 2462 2535 L
2478 2603 mt 2463 2616 L
2478 2683 mt 2469 2696 L
2478 2761 mt 2475 2771 L
2478 2836 mt 2459 2846 L
2478 2907 mt 2448 2903 L
2478 2973 mt 2422 2970 L
2478 3033 mt 2400 3032 L
2478 3086 mt 2391 3077 L
2478 3130 mt 2353 3112 L
2478 3165 mt 2301 3139 L
2478 3191 mt 2246 3155 L
2478 3211 mt 2192 3166 L
2369 1984 mt 2640 2026 L
2369 1999 mt 2596 2035 L
2369 2025 mt 2530 2051 L
2369 2060 mt 2458 2076 L
2369 2104 mt 2407 2115 L
2369 2157 mt 2377 2163 L
2369 2216 mt 2355 2215 L
2369 2282 mt 2348 2270 L
2369 2354 mt 2343 2332 L
2369 2429 mt 2342 2405 L
2369 2507 mt 2343 2493 L
2369 2586 mt 2349 2591 L
2369 2666 mt 2356 2686 L
2369 2744 mt 2375 2768 L
2369 2819 mt 2370 2846 L
2369 2890 mt 2336 2903 L
2369 2956 mt 2324 2953 L
2369 3016 mt 2291 3022 L
2369 3069 mt 2277 3072 L
2369 3113 mt 2243 3102 L
2369 3148 mt 2186 3123 L
2369 3173 mt 2131 3137 L
2369 3189 mt 2095 3146 L
2369 3194 mt 2083 3149 L
2260 1961 mt 2546 2006 L
2260 1967 mt 2532 2009 L
2260 1982 mt 2491 2019 L
2260 2008 mt 2424 2035 L
2260 2043 mt 2349 2059 L
2260 2087 mt 2291 2096 L
2260 2139 mt 2258 2142 L
2260 2199 mt 2235 2190 L
2260 2265 mt 2228 2240 L
2260 2337 mt 2227 2298 L
2260 2412 mt 2231 2369 L
2260 2490 mt 2255 2455 L
2260 2569 mt 2269 2548 L
2260 2649 mt 2271 2640 L
2260 2727 mt 2274 2725 L
2260 2802 mt 2274 2802 L
2260 2873 mt 2235 2879 L
2260 2939 mt 2218 2936 L
2260 2999 mt 2205 2998 L
2260 3051 mt 2176 3051 L
2260 3096 mt 2141 3084 L
2260 3131 mt 2075 3104 L
2260 3156 mt 2018 3119 L
2260 3172 mt 1985 3129 L
2260 3177 mt 1974 3132 L
2151 1949 mt 2424 1992 L
2151 1965 mt 2385 2002 L
2151 1991 mt 2318 2018 L
2151 2026 mt 2239 2042 L
2151 2070 mt 2180 2076 L
2151 2122 mt 2145 2123 L
2151 2182 mt 2119 2171 L
2151 2248 mt 2110 2220 L
2151 2319 mt 2112 2280 L
2151 2395 mt 2130 2356 L
2151 2473 mt 2162 2437 L
2151 2552 mt 2181 2516 L
2151 2631 mt 2191 2601 L
2151 2709 mt 2194 2692 L
2151 2785 mt 2182 2773 L
2151 2856 mt 2157 2851 L
2151 2922 mt 2121 2927 L
2151 2982 mt 2108 2986 L
2151 3034 mt 2081 3034 L
2151 3078 mt 2042 3067 L
2151 3114 mt 1971 3086 L
2042 3122 mt 1803 3085 L
2151 3139 mt 1910 3101 L
2151 3155 mt 1876 3111 L
2151 3160 mt 1865 3115 L
2042 1932 mt 2316 1975 L
2042 1948 mt 2277 1985 L
2042 1973 mt 2211 2001 L
2042 2009 mt 2128 2024 L
2042 2053 mt 2066 2059 L
2042 2105 mt 2036 2104 L
2042 2165 mt 2010 2156 L
2042 2231 mt 1995 2210 L
2042 2302 mt 1998 2274 L
2042 2378 mt 2021 2350 L
2042 2456 mt 2042 2430 L
2042 2535 mt 2065 2519 L
2042 2614 mt 2096 2614 L
2042 2692 mt 2106 2703 L
2042 2768 mt 2089 2778 L
2042 2839 mt 2066 2844 L
2042 2905 mt 2035 2913 L
2042 2965 mt 1998 2976 L
2042 3017 mt 1972 3022 L
2042 3061 mt 1935 3052 L
2042 3097 mt 1867 3070 L
2042 3138 mt 1768 3094 L
2042 3143 mt 1756 3098 L
1934 1910 mt 2220 1955 L
1934 1915 mt 2207 1958 L
1934 1931 mt 2170 1968 L
1934 1956 mt 2104 1984 L
1934 1991 mt 2018 2007 L
1934 2036 mt 1951 2040 L
1934 2088 mt 1919 2084 L
1934 2148 mt 1900 2134 L
1934 2214 mt 1882 2191 L
1934 2285 mt 1886 2260 L
1934 2361 mt 1909 2337 L
1934 2439 mt 1932 2424 L
1934 2518 mt 1961 2521 L
1934 2597 mt 1993 2614 L
1934 2675 mt 1994 2694 L
1934 2750 mt 1975 2765 L
1934 2822 mt 1954 2830 L
1934 2888 mt 1928 2889 L
1934 2948 mt 1881 2949 L
1934 3000 mt 1848 2999 L
1934 3044 mt 1814 3032 L
1934 3079 mt 1755 3052 L
1607 3074 mt 1607 1859 L
1825 3088 mt 1584 3049 L
1934 3105 mt 1695 3067 L
1825 3103 mt 1550 3060 L
1934 3120 mt 1659 3077 L
1934 3126 mt 1647 3081 L
1825 1898 mt 2099 1941 L
1825 1914 mt 2061 1951 L
1825 1939 mt 1996 1967 L
1825 1974 mt 1908 1990 L
1825 2019 mt 1837 2022 L
1825 2071 mt 1799 2066 L
1825 2131 mt 1780 2116 L
1825 2197 mt 1767 2172 L
1825 2268 mt 1772 2242 L
1825 2343 mt 1798 2323 L
1825 2421 mt 1822 2411 L
1825 2501 mt 1848 2494 L
1825 2580 mt 1875 2559 L
1825 2658 mt 1882 2634 L
1825 2733 mt 1855 2717 L
1825 2805 mt 1841 2791 L
1825 2871 mt 1811 2858 L
1825 2931 mt 1760 2917 L
1825 2983 mt 1717 2969 L
1825 3027 mt 1686 3007 L
1825 3062 mt 1636 3032 L
1825 3109 mt 1539 3064 L
1716 1881 mt 1990 1924 L
1716 1896 mt 1952 1934 L
1716 1922 mt 1888 1950 L
1716 1957 mt 1800 1974 L
1716 2001 mt 1722 2006 L
1716 2054 mt 1682 2049 L
1716 2114 mt 1659 2102 L
1716 2180 mt 1652 2160 L
1716 2251 mt 1660 2229 L
1716 2326 mt 1679 2312 L
1716 2404 mt 1692 2397 L
1716 2484 mt 1709 2475 L
1716 2563 mt 1738 2532 L
1716 2641 mt 1763 2600 L
1716 2716 mt 1754 2685 L
1716 2788 mt 1728 2765 L
1716 2854 mt 1706 2833 L
1716 2913 mt 1648 2893 L
1716 2966 mt 1590 2945 L
1716 3010 mt 1556 2985 L
1716 3045 mt 1517 3013 L
1716 3071 mt 1472 3032 L
1716 3086 mt 1441 3043 L
1716 3091 mt 1430 3046 L
1607 1859 mt 1893 1904 L
1607 1864 mt 1881 1907 L
1607 1879 mt 1844 1917 L
1607 1905 mt 1780 1933 L
1607 1940 mt 1693 1956 L
1607 1984 mt 1614 1990 L
1607 2037 mt 1568 2034 L
1607 2096 mt 1544 2088 L
1607 2163 mt 1539 2150 L
1607 2234 mt 1549 2219 L
1607 2309 mt 1564 2298 L
1607 2387 mt 1574 2386 L
1607 2466 mt 1588 2475 L
1607 2546 mt 1608 2549 L
1607 2624 mt 1634 2614 L
1607 2699 mt 1655 2684 L
1607 2770 mt 1623 2755 L
1607 2836 mt 1595 2817 L
1607 2896 mt 1548 2873 L
1607 2949 mt 1478 2924 L
1607 2993 mt 1432 2965 L
1607 3028 mt 1397 2995 L
1607 3054 mt 1359 3015 L
1607 3069 mt 1331 3026 L
1607 3074 mt 1321 3029 L
gr

1371 2465 mt  -90 rotate
(y) s
90 rotate
gs 899 603 5357 3797 rc
gr


end

eplot
%%EndObject

epage
end

showpage

%%Trailer
%%EOF
