%!PS-Adobe-3.0 EPSF-3.0
%%Creator: MATLAB, The Mathworks, Inc.
%%Title: ./datalayout.eps
%%CreationDate: 05/25/2005  10:32:35
%%DocumentNeededFonts: Helvetica
%%DocumentProcessColors: Cyan Magenta Yellow Black
%%LanguageLevel: 2
%%Pages: 1
%%BoundingBox:   180   208   458   600
%%EndComments

%%BeginProlog
% MathWorks dictionary
/MathWorks 160 dict begin
% definition operators
/bdef {bind def} bind def
/ldef {load def} bind def
/xdef {exch def} bdef
/xstore {exch store} bdef
% operator abbreviations
/c  /clip ldef
/cc /concat ldef
/cp /closepath ldef
/gr /grestore ldef
/gs /gsave ldef
/mt /moveto ldef
/np /newpath ldef
/cm /currentmatrix ldef
/sm /setmatrix ldef
/rm /rmoveto ldef
/rl /rlineto ldef
/s {show newpath} bdef
/sc {setcmykcolor} bdef
/sr /setrgbcolor ldef
/sg /setgray ldef
/w /setlinewidth ldef
/j /setlinejoin ldef
/cap /setlinecap ldef
/rc {rectclip} bdef
/rf {rectfill} bdef
% page state control
/pgsv () def
/bpage {/pgsv save def} bdef
/epage {pgsv restore} bdef
/bplot /gsave ldef
/eplot {stroke grestore} bdef
% orientation switch
/portraitMode 0 def /landscapeMode 1 def /rotateMode 2 def
% coordinate system mappings
/dpi2point 0 def
% font control
/FontSize 0 def
/FMS {/FontSize xstore findfont [FontSize 0 0 FontSize neg 0 0]
  makefont setfont} bdef
/reencode {exch dup where {pop load} {pop StandardEncoding} ifelse
  exch dup 3 1 roll findfont dup length dict begin
  { 1 index /FID ne {def}{pop pop} ifelse } forall
  /Encoding exch def currentdict end definefont pop} bdef
/isroman {findfont /CharStrings get /Agrave known} bdef
/FMSR {3 1 roll 1 index dup isroman {reencode} {pop pop} ifelse
  exch FMS} bdef
/csm {1 dpi2point div -1 dpi2point div scale neg translate
 dup landscapeMode eq {pop -90 rotate}
  {rotateMode eq {90 rotate} if} ifelse} bdef
% line types: solid, dotted, dashed, dotdash
/SO { [] 0 setdash } bdef
/DO { [.5 dpi2point mul 4 dpi2point mul] 0 setdash } bdef
/DA { [6 dpi2point mul] 0 setdash } bdef
/DD { [.5 dpi2point mul 4 dpi2point mul 6 dpi2point mul 4
  dpi2point mul] 0 setdash } bdef
% macros for lines and objects
/L {lineto stroke} bdef
/MP {3 1 roll moveto 1 sub {rlineto} repeat} bdef
/AP {{rlineto} repeat} bdef
/PDlw -1 def
/W {/PDlw currentlinewidth def setlinewidth} def
/PP {closepath eofill} bdef
/DP {closepath stroke} bdef
/MR {4 -2 roll moveto dup  0 exch rlineto exch 0 rlineto
  neg 0 exch rlineto closepath} bdef
/FR {MR stroke} bdef
/PR {MR fill} bdef
/L1i {{currentfile picstr readhexstring pop} image} bdef
/tMatrix matrix def
/MakeOval {newpath tMatrix currentmatrix pop translate scale
0 0 1 0 360 arc tMatrix setmatrix} bdef
/FO {MakeOval stroke} bdef
/PO {MakeOval fill} bdef
/PD {currentlinewidth 2 div 0 360 arc fill
   PDlw -1 eq not {PDlw w /PDlw -1 def} if} def
/FA {newpath tMatrix currentmatrix pop translate scale
  0 0 1 5 -2 roll arc tMatrix setmatrix stroke} bdef
/PA {newpath tMatrix currentmatrix pop	translate 0 0 moveto scale
  0 0 1 5 -2 roll arc closepath tMatrix setmatrix fill} bdef
/FAn {newpath tMatrix currentmatrix pop translate scale
  0 0 1 5 -2 roll arcn tMatrix setmatrix stroke} bdef
/PAn {newpath tMatrix currentmatrix pop translate 0 0 moveto scale
  0 0 1 5 -2 roll arcn closepath tMatrix setmatrix fill} bdef
/vradius 0 def /hradius 0 def /lry 0 def
/lrx 0 def /uly 0 def /ulx 0 def /rad 0 def
/MRR {/vradius xdef /hradius xdef /lry xdef /lrx xdef /uly xdef
  /ulx xdef newpath tMatrix currentmatrix pop ulx hradius add uly
  vradius add translate hradius vradius scale 0 0 1 180 270 arc 
  tMatrix setmatrix lrx hradius sub uly vradius add translate
  hradius vradius scale 0 0 1 270 360 arc tMatrix setmatrix
  lrx hradius sub lry vradius sub translate hradius vradius scale
  0 0 1 0 90 arc tMatrix setmatrix ulx hradius add lry vradius sub
  translate hradius vradius scale 0 0 1 90 180 arc tMatrix setmatrix
  closepath} bdef
/FRR {MRR stroke } bdef
/PRR {MRR fill } bdef
/MlrRR {/lry xdef /lrx xdef /uly xdef /ulx xdef /rad lry uly sub 2 div def
  newpath tMatrix currentmatrix pop ulx rad add uly rad add translate
  rad rad scale 0 0 1 90 270 arc tMatrix setmatrix lrx rad sub lry rad
  sub translate rad rad scale 0 0 1 270 90 arc tMatrix setmatrix
  closepath} bdef
/FlrRR {MlrRR stroke } bdef
/PlrRR {MlrRR fill } bdef
/MtbRR {/lry xdef /lrx xdef /uly xdef /ulx xdef /rad lrx ulx sub 2 div def
  newpath tMatrix currentmatrix pop ulx rad add uly rad add translate
  rad rad scale 0 0 1 180 360 arc tMatrix setmatrix lrx rad sub lry rad
  sub translate rad rad scale 0 0 1 0 180 arc tMatrix setmatrix
  closepath} bdef
/FtbRR {MtbRR stroke } bdef
/PtbRR {MtbRR fill } bdef
/stri 6 array def /dtri 6 array def
/smat 6 array def /dmat 6 array def
/tmat1 6 array def /tmat2 6 array def /dif 3 array def
/asub {/ind2 exch def /ind1 exch def dup dup
  ind1 get exch ind2 get sub exch } bdef
/tri_to_matrix {
  2 0 asub 3 1 asub 4 0 asub 5 1 asub
  dup 0 get exch 1 get 7 -1 roll astore } bdef
/compute_transform {
  dmat dtri tri_to_matrix tmat1 invertmatrix 
  smat stri tri_to_matrix tmat2 concatmatrix } bdef
/ds {stri astore pop} bdef
/dt {dtri astore pop} bdef
/db {2 copy /cols xdef /rows xdef mul dup string
  currentfile 
  3 index 0 eq {/ASCIIHexDecode filter}
  {/ASCII85Decode filter 3 index 2 eq {/RunLengthDecode filter} if }
  ifelse exch readstring pop
  /bmap xdef pop pop} bdef
/it {gs np dtri aload pop moveto lineto lineto cp c
  cols rows 8 compute_transform 
  {bmap} image gr}bdef
/il {newpath moveto lineto stroke}bdef
currentdict end def
%%EndProlog

%%BeginSetup
MathWorks begin

0 cap

end
%%EndSetup

%%Page: 1 1
%%BeginPageSetup
%%PageBoundingBox:   180   208   458   600
MathWorks begin
bpage
%%EndPageSetup

%%BeginObject: obj1
bplot

/dpi2point 12 def
portraitMode 0216 7344 csm

 1946   142  3341  4695 rc
86 dict begin %Colortable dictionary
/c0 { 0.000000 0.000000 0.000000 sr} bdef
/c1 { 1.000000 1.000000 1.000000 sr} bdef
/c2 { 0.900000 0.000000 0.000000 sr} bdef
/c3 { 0.000000 0.820000 0.000000 sr} bdef
/c4 { 0.000000 0.000000 0.800000 sr} bdef
/c5 { 0.910000 0.820000 0.320000 sr} bdef
/c6 { 1.000000 0.260000 0.820000 sr} bdef
/c7 { 0.000000 0.820000 0.820000 sr} bdef
c0
1 j
1 sg
   0    0 6913 5186 rf
6 w
gs 899 389 5357 4226 rc
0.9 sg
-423 0 0 1690 423 0 4421 389 4 MP
PP
0 sg
0 -1690 -423 0 0 1690 423 0 4421 389 5 MP stroke
0 -42 0 21 -2302 0 0 -21 -85 21 85 21 0 -21 4717 495 8 MP stroke
gr

0 sg
%%IncludeResource: font Helvetica
/Helvetica /ISOLatin1Encoding 192 FMSR

4886  647 mt 
( ) s
gs 899 389 5357 4226 rc
2535 0 2309 389 2 MP stroke
2535 0 2309 601 2 MP stroke
2535 0 2309 812 2 MP stroke
2535 0 2309 1023 2 MP stroke
2535 0 2309 1234 2 MP stroke
2535 0 2309 1445 2 MP stroke
2535 0 2309 1657 2 MP stroke
2535 0 2309 1868 2 MP stroke
2535 0 2309 2079 2 MP stroke
0 1690 2309 389 2 MP stroke
0 1690 2520 389 2 MP stroke
0 1690 2732 389 2 MP stroke
0 1690 2943 389 2 MP stroke
0 1690 3154 389 2 MP stroke
0 1690 3365 389 2 MP stroke
0 1690 3577 389 2 MP stroke
0 1690 3788 389 2 MP stroke
0 1690 3999 389 2 MP stroke
0 1690 4210 389 2 MP stroke
0 1690 4421 389 2 MP stroke
0 1690 4633 389 2 MP stroke
0 1690 4844 389 2 MP stroke
gr

%%IncludeResource: font Helvetica
/Helvetica /ISOLatin1Encoding 120 FMSR

2383  326 mt 
(0) s
2594  326 mt 
(1) s
2806  326 mt 
(2) s
3017  326 mt 
(3) s
3228  326 mt 
(4) s
3439  326 mt 
(5) s
3650  326 mt 
(6) s
3862  326 mt 
(7) s
4073  326 mt 
(8) s
4284  326 mt 
(9) s
5055  326 mt 
(nz) s
2161  537 mt 
(0) s
2161  748 mt 
(1) s
2161  959 mt 
(2) s
2161 1171 mt 
(3) s
2161 1382 mt 
(4) s
2161 1593 mt 
(5) s
2161 1804 mt 
(6) s
2161 2015 mt 
(7) s
2140 2227 mt 
(nx) s
2520 2227 mt 
(real-valued data f\(nx,nz\)) s
4379 2227 mt 
(\(padding\)) s
gs 899 389 5357 4226 rc
2535 0 2309 2924 2 MP stroke
2535 0 2309 3135 2 MP stroke
2535 0 2309 3346 2 MP stroke
2535 0 2309 3558 2 MP stroke
2535 0 2309 3769 2 MP stroke
2535 0 2309 3980 2 MP stroke
2535 0 2309 4191 2 MP stroke
2535 0 2309 4402 2 MP stroke
2535 0 2309 4614 2 MP stroke
0 1690 2309 2924 2 MP stroke
0 1690 2732 2924 2 MP stroke
0 1690 3154 2924 2 MP stroke
0 1690 3577 2924 2 MP stroke
0 1690 3999 2924 2 MP stroke
0 1690 4421 2924 2 MP stroke
0 1690 4844 2924 2 MP stroke
DO
0 1690 2520 2924 2 MP stroke
0 1690 2943 2924 2 MP stroke
0 1690 3365 2924 2 MP stroke
0 1690 3788 2924 2 MP stroke
0 1690 4210 2924 2 MP stroke
0 1690 4633 2924 2 MP stroke
gr

DO
2499 2860 mt 
(0) s
2499 2712 mt 
(0) s
2922 2860 mt 
(1) s
2922 2712 mt 
(1) s
3344 2860 mt 
(2) s
3344 2712 mt 
(2) s
3767 2860 mt 
(3) s
3767 2712 mt 
(3) s
4189 2860 mt 
(4) s
4189 2712 mt 
(4) s
4611 2860 mt 
(5) s
4611 2712 mt 
(5) s
5055 2712 mt 
(mz) s
5055 2860 mt 
(kz) s
1992 3072 mt 
(0) s
1992 3283 mt 
(1) s
1992 3494 mt 
(2) s
1992 3705 mt 
(3) s
1992 3916 mt 
(4) s
1992 4128 mt 
(5) s
1992 4339 mt 
(6) s
1992 4550 mt 
(7) s
1971 4782 mt 
(mx) s
2204 3072 mt 
(0) s
2204 3283 mt 
(1) s
2204 3494 mt 
(2) s
2204 3705 mt 
(3) s
2204 3916 mt 
(4) s
2140 4128 mt 
(-3) s
2140 4339 mt 
(-2) s
2140 4550 mt 
(-1) s
2182 4782 mt 
(kx) s
2732 4785 mt 
(complex-valued data f) s
%%IncludeResource: font Helvetica
/Helvetica /ISOLatin1Encoding 96 FMSR

3929 4725 mt 
( ) s
%%IncludeResource: font Symbol
/Symbol /ISOLatin1Encoding 96 FMSR

3955 4725 mt 
(~) s
%%IncludeResource: font Helvetica
/Helvetica /ISOLatin1Encoding 120 FMSR

4007 4785 mt 
(\(nx,nz\)) s
SO

end %%Color Dict

eplot
%%EndObject

epage
end

showpage

%%Trailer
%%EOF
