%!PS-Adobe-3.0 EPSF-3.0
%%Creator: MATLAB, The Mathworks, Inc.
%%Title: memory.eps
%%CreationDate: 10/04/2003  17:31:42
%%DocumentNeededFonts: Helvetica
%%DocumentProcessColors: Cyan Magenta Yellow Black
%%LanguageLevel: 2
%%Pages: 1
%%BoundingBox:    52   194   542   592
%%EndComments

%%BeginProlog
% MathWorks dictionary
/MathWorks 160 dict begin
% definition operators
/bdef {bind def} bind def
/ldef {load def} bind def
/xdef {exch def} bdef
/xstore {exch store} bdef
% operator abbreviations
/c  /clip ldef
/cc /concat ldef
/cp /closepath ldef
/gr /grestore ldef
/gs /gsave ldef
/mt /moveto ldef
/np /newpath ldef
/cm /currentmatrix ldef
/sm /setmatrix ldef
/rm /rmoveto ldef
/rl /rlineto ldef
/s /show ldef
/sc {setcmykcolor} bdef
/sr /setrgbcolor ldef
/sg /setgray ldef
/w /setlinewidth ldef
/j /setlinejoin ldef
/cap /setlinecap ldef
/rc {rectclip} bdef
/rf {rectfill} bdef
% page state control
/pgsv () def
/bpage {/pgsv save def} bdef
/epage {pgsv restore} bdef
/bplot /gsave ldef
/eplot {stroke grestore} bdef
% orientation switch
/portraitMode 0 def /landscapeMode 1 def /rotateMode 2 def
% coordinate system mappings
/dpi2point 0 def
% font control
/FontSize 0 def
/FMS {/FontSize xstore findfont [FontSize 0 0 FontSize neg 0 0]
  makefont setfont} bdef
/reencode {exch dup where {pop load} {pop StandardEncoding} ifelse
  exch dup 3 1 roll findfont dup length dict begin
  { 1 index /FID ne {def}{pop pop} ifelse } forall
  /Encoding exch def currentdict end definefont pop} bdef
/isroman {findfont /CharStrings get /Agrave known} bdef
/FMSR {3 1 roll 1 index dup isroman {reencode} {pop pop} ifelse
  exch FMS} bdef
/csm {1 dpi2point div -1 dpi2point div scale neg translate
 dup landscapeMode eq {pop -90 rotate}
  {rotateMode eq {90 rotate} if} ifelse} bdef
% line types: solid, dotted, dashed, dotdash
/SO { [] 0 setdash } bdef
/DO { [.5 dpi2point mul 4 dpi2point mul] 0 setdash } bdef
/DA { [6 dpi2point mul] 0 setdash } bdef
/DD { [.5 dpi2point mul 4 dpi2point mul 6 dpi2point mul 4
  dpi2point mul] 0 setdash } bdef
% macros for lines and objects
/L {lineto stroke} bdef
/MP {3 1 roll moveto 1 sub {rlineto} repeat} bdef
/AP {{rlineto} repeat} bdef
/PDlw -1 def
/W {/PDlw currentlinewidth def setlinewidth} def
/PP {closepath eofill} bdef
/DP {closepath stroke} bdef
/MR {4 -2 roll moveto dup  0 exch rlineto exch 0 rlineto
  neg 0 exch rlineto closepath} bdef
/FR {MR stroke} bdef
/PR {MR fill} bdef
/L1i {{currentfile picstr readhexstring pop} image} bdef
/tMatrix matrix def
/MakeOval {newpath tMatrix currentmatrix pop translate scale
0 0 1 0 360 arc tMatrix setmatrix} bdef
/FO {MakeOval stroke} bdef
/PO {MakeOval fill} bdef
/PD {currentlinecap 1 cap 3 1 roll 2 copy mt lineto stroke
   cap PDlw -1 eq not {PDlw w /PDlw -1 def} if} def
/FA {newpath tMatrix currentmatrix pop translate scale
  0 0 1 5 -2 roll arc tMatrix setmatrix stroke} bdef
/PA {newpath tMatrix currentmatrix pop	translate 0 0 moveto scale
  0 0 1 5 -2 roll arc closepath tMatrix setmatrix fill} bdef
/FAn {newpath tMatrix currentmatrix pop translate scale
  0 0 1 5 -2 roll arcn tMatrix setmatrix stroke} bdef
/PAn {newpath tMatrix currentmatrix pop translate 0 0 moveto scale
  0 0 1 5 -2 roll arcn closepath tMatrix setmatrix fill} bdef
/vradius 0 def /hradius 0 def /lry 0 def
/lrx 0 def /uly 0 def /ulx 0 def /rad 0 def
/MRR {/vradius xdef /hradius xdef /lry xdef /lrx xdef /uly xdef
  /ulx xdef newpath tMatrix currentmatrix pop ulx hradius add uly
  vradius add translate hradius vradius scale 0 0 1 180 270 arc 
  tMatrix setmatrix lrx hradius sub uly vradius add translate
  hradius vradius scale 0 0 1 270 360 arc tMatrix setmatrix
  lrx hradius sub lry vradius sub translate hradius vradius scale
  0 0 1 0 90 arc tMatrix setmatrix ulx hradius add lry vradius sub
  translate hradius vradius scale 0 0 1 90 180 arc tMatrix setmatrix
  closepath} bdef
/FRR {MRR stroke } bdef
/PRR {MRR fill } bdef
/MlrRR {/lry xdef /lrx xdef /uly xdef /ulx xdef /rad lry uly sub 2 div def
  newpath tMatrix currentmatrix pop ulx rad add uly rad add translate
  rad rad scale 0 0 1 90 270 arc tMatrix setmatrix lrx rad sub lry rad
  sub translate rad rad scale 0 0 1 270 90 arc tMatrix setmatrix
  closepath} bdef
/FlrRR {MlrRR stroke } bdef
/PlrRR {MlrRR fill } bdef
/MtbRR {/lry xdef /lrx xdef /uly xdef /ulx xdef /rad lrx ulx sub 2 div def
  newpath tMatrix currentmatrix pop ulx rad add uly rad add translate
  rad rad scale 0 0 1 180 360 arc tMatrix setmatrix lrx rad sub lry rad
  sub translate rad rad scale 0 0 1 0 180 arc tMatrix setmatrix
  closepath} bdef
/FtbRR {MtbRR stroke } bdef
/PtbRR {MtbRR fill } bdef
/stri 6 array def /dtri 6 array def
/smat 6 array def /dmat 6 array def
/tmat1 6 array def /tmat2 6 array def /dif 3 array def
/asub {/ind2 exch def /ind1 exch def dup dup
  ind1 get exch ind2 get sub exch } bdef
/tri_to_matrix {
  2 0 asub 3 1 asub 4 0 asub 5 1 asub
  dup 0 get exch 1 get 7 -1 roll astore } bdef
/compute_transform {
  dmat dtri tri_to_matrix tmat1 invertmatrix 
  smat stri tri_to_matrix tmat2 concatmatrix } bdef
/ds {stri astore pop} bdef
/dt {dtri astore pop} bdef
/db {2 copy /cols xdef /rows xdef mul dup string
  currentfile 
  3 index 0 eq {/ASCIIHexDecode filter}
  {/ASCII85Decode filter 3 index 2 eq {/RunLengthDecode filter} if }
  ifelse exch readstring pop
  /bmap xdef pop pop} bdef
/it {gs np dtri aload pop moveto lineto lineto cp c
  cols rows 8 compute_transform 
  {bmap} image gr}bdef
/il {newpath moveto lineto stroke}bdef
currentdict end def
%%EndProlog

%%BeginSetup
MathWorks begin

0 cap

end
%%EndSetup

%%Page: 1 1
%%BeginPageSetup
%%PageBoundingBox:    52   194   542   592
MathWorks begin
bpage
%%EndPageSetup

%%BeginObject: obj1
bplot

/dpi2point 12 def
portraitMode 0204 7344 csm

  424   237  5881  4776 rc
92 dict begin %Colortable dictionary
/c0 { 0 0 0 sr} bdef
/c1 { 1 1 1 sr} bdef
/c2 { 1 0 0 sr} bdef
/c3 { 0 1 0 sr} bdef
/c4 { 0 0 1 sr} bdef
/c5 { 1 1 0 sr} bdef
/c6 { 1 0 1 sr} bdef
/c7 { 0 1 1 sr} bdef
c0
1 j
1 sg
   0    0 6913 5185 rf
6 w
0 4226 5355 0 0 -4226 899 4614 4 MP
PP
-5355 0 0 4226 5355 0 0 -4226 899 4614 5 MP stroke
4 w
DO
SO
6 w
0 sg
 899 4614 mt 6254 4614 L
 899  388 mt 6254  388 L
 899 4614 mt  899  388 L
6254 4614 mt 6254  388 L
 899 4614 mt 6254 4614 L
 899 4614 mt  899  388 L
1990 4614 mt 1990 4587 L
1990  389 mt 1990  415 L
1824 4614 mt 1824 4587 L
1824  389 mt 1824  415 L
1639 4614 mt 1639 4587 L
1639  389 mt 1639  415 L
1428 4614 mt 1428 4587 L
1428  389 mt 1428  415 L
1186 4614 mt 1186 4587 L
1186  389 mt 1186  415 L
1990 4614 mt 1990 4560 L
1990  389 mt 1990  442 L
%%IncludeResource: font Helvetica
/Helvetica /ISOLatin1Encoding 120 FMSR

1902 4796 mt 
(10) s
%%IncludeResource: font Helvetica
/Helvetica /ISOLatin1Encoding 80 FMSR

2035 4722 mt 
(1) s
3082 4614 mt 3082 4587 L
3082  389 mt 3082  415 L
3720 4614 mt 3720 4587 L
3720  389 mt 3720  415 L
4173 4614 mt 4173 4587 L
4173  389 mt 4173  415 L
4524 4614 mt 4524 4587 L
4524  389 mt 4524  415 L
4812 4614 mt 4812 4587 L
4812  389 mt 4812  415 L
5054 4614 mt 5054 4587 L
5054  389 mt 5054  415 L
5265 4614 mt 5265 4587 L
5265  389 mt 5265  415 L
5450 4614 mt 5450 4587 L
5450  389 mt 5450  415 L
5616 4614 mt 5616 4587 L
5616  389 mt 5616  415 L
5616 4614 mt 5616 4560 L
5616  389 mt 5616  442 L
%%IncludeResource: font Helvetica
/Helvetica /ISOLatin1Encoding 120 FMSR

5528 4796 mt 
(10) s
%%IncludeResource: font Helvetica
/Helvetica /ISOLatin1Encoding 80 FMSR

5661 4722 mt 
(2) s
 899 3985 mt  925 3985 L
6255 3985 mt 6228 3985 L
 899 4026 mt  925 4026 L
6255 4026 mt 6228 4026 L
 899 4072 mt  925 4072 L
6255 4072 mt 6228 4072 L
 899 4124 mt  925 4124 L
6255 4124 mt 6228 4124 L
 899 4185 mt  925 4185 L
6255 4185 mt 6228 4185 L
 899 4256 mt  925 4256 L
6255 4256 mt 6228 4256 L
 899 4343 mt  925 4343 L
6255 4343 mt 6228 4343 L
 899 4455 mt  925 4455 L
6255 4455 mt 6228 4455 L
 899 4614 mt  925 4614 L
6255 4614 mt 6228 4614 L
 899 3985 mt  952 3985 L
6255 3985 mt 6201 3985 L
%%IncludeResource: font Helvetica
/Helvetica /ISOLatin1Encoding 120 FMSR

 640 4029 mt 
(10) s
%%IncludeResource: font Helvetica
/Helvetica /ISOLatin1Encoding 80 FMSR

 773 3955 mt 
(-1) s
 899 3714 mt  925 3714 L
6255 3714 mt 6228 3714 L
 899 3556 mt  925 3556 L
6255 3556 mt 6228 3556 L
 899 3444 mt  925 3444 L
6255 3444 mt 6228 3444 L
 899 3357 mt  925 3357 L
6255 3357 mt 6228 3357 L
 899 3285 mt  925 3285 L
6255 3285 mt 6228 3285 L
 899 3225 mt  925 3225 L
6255 3225 mt 6228 3225 L
 899 3173 mt  925 3173 L
6255 3173 mt 6228 3173 L
 899 3127 mt  925 3127 L
6255 3127 mt 6228 3127 L
 899 3086 mt  925 3086 L
6255 3086 mt 6228 3086 L
 899 3086 mt  952 3086 L
6255 3086 mt 6201 3086 L
%%IncludeResource: font Helvetica
/Helvetica /ISOLatin1Encoding 120 FMSR

 640 3130 mt 
(10) s
%%IncludeResource: font Helvetica
/Helvetica /ISOLatin1Encoding 80 FMSR

 773 3056 mt 
(0) s
 899 2815 mt  925 2815 L
6255 2815 mt 6228 2815 L
 899 2657 mt  925 2657 L
6255 2657 mt 6228 2657 L
 899 2545 mt  925 2545 L
6255 2545 mt 6228 2545 L
 899 2457 mt  925 2457 L
6255 2457 mt 6228 2457 L
 899 2386 mt  925 2386 L
6255 2386 mt 6228 2386 L
 899 2326 mt  925 2326 L
6255 2326 mt 6228 2326 L
 899 2274 mt  925 2274 L
6255 2274 mt 6228 2274 L
 899 2228 mt  925 2228 L
6255 2228 mt 6228 2228 L
 899 2187 mt  925 2187 L
6255 2187 mt 6228 2187 L
 899 2187 mt  952 2187 L
6255 2187 mt 6201 2187 L
%%IncludeResource: font Helvetica
/Helvetica /ISOLatin1Encoding 120 FMSR

 640 2231 mt 
(10) s
%%IncludeResource: font Helvetica
/Helvetica /ISOLatin1Encoding 80 FMSR

 773 2157 mt 
(1) s
 899 1916 mt  925 1916 L
6255 1916 mt 6228 1916 L
 899 1758 mt  925 1758 L
6255 1758 mt 6228 1758 L
 899 1645 mt  925 1645 L
6255 1645 mt 6228 1645 L
 899 1558 mt  925 1558 L
6255 1558 mt 6228 1558 L
 899 1487 mt  925 1487 L
6255 1487 mt 6228 1487 L
 899 1427 mt  925 1427 L
6255 1427 mt 6228 1427 L
 899 1375 mt  925 1375 L
6255 1375 mt 6228 1375 L
 899 1329 mt  925 1329 L
6255 1329 mt 6228 1329 L
 899 1288 mt  925 1288 L
6255 1288 mt 6228 1288 L
 899 1288 mt  952 1288 L
6255 1288 mt 6201 1288 L
%%IncludeResource: font Helvetica
/Helvetica /ISOLatin1Encoding 120 FMSR

 640 1332 mt 
(10) s
%%IncludeResource: font Helvetica
/Helvetica /ISOLatin1Encoding 80 FMSR

 773 1258 mt 
(2) s
 899 1017 mt  925 1017 L
6255 1017 mt 6228 1017 L
 899  859 mt  925  859 L
6255  859 mt 6228  859 L
 899  746 mt  925  746 L
6255  746 mt 6228  746 L
 899  659 mt  925  659 L
6255  659 mt 6228  659 L
 899  588 mt  925  588 L
6255  588 mt 6228  588 L
 899  528 mt  925  528 L
6255  528 mt 6228  528 L
 899  476 mt  925  476 L
6255  476 mt 6228  476 L
 899  430 mt  925  430 L
6255  430 mt 6228  430 L
 899  389 mt  925  389 L
6255  389 mt 6228  389 L
 899  389 mt  952  389 L
6255  389 mt 6201  389 L
%%IncludeResource: font Helvetica
/Helvetica /ISOLatin1Encoding 120 FMSR

 640  433 mt 
(10) s
%%IncludeResource: font Helvetica
/Helvetica /ISOLatin1Encoding 80 FMSR

 773  359 mt 
(3) s
 899 4614 mt 6254 4614 L
 899  388 mt 6254  388 L
 899 4614 mt  899  388 L
6254 4614 mt 6254  388 L
gs 899 389 5357 4226 rc
gr

1614 2903 mt 1664 2953 L
1664 2903 mt 1614 2953 L
2705 2688 mt 2755 2738 L
2755 2688 mt 2705 2738 L
3797 2162 mt 3847 2212 L
3847 2162 mt 3797 2212 L
4435 1760 mt 4485 1810 L
4485 1760 mt 4435 1810 L
4888 1437 mt 4938 1487 L
4938 1437 mt 4888 1487 L
5527  988 mt 5577 1038 L
5577  988 mt 5527 1038 L
5980  660 mt 6030  710 L
6030  660 mt 5980  710 L
gs 899 389 5357 4226 rc
gr

  36   36 1639 2928 FO
  36   36 2730 2796 FO
  36   36 3822 2337 FO
  36   36 4460 1936 FO
  36   36 4913 1645 FO
  36   36 5552 1188 FO
  36   36 6005  860 FO
gs 899 389 5357 4226 rc
DO
453 -337 639 -475 453 -337 638 -475 1092 -812 1091 -812 1639 3898 7 MP stroke
DA
453 -337 639 -475 453 -337 638 -475 1092 -812 1091 -812 1639 4081 7 MP stroke
SO
453 -337 639 -475 453 -337 638 -475 1092 -812 1091 -812 1639 4221 7 MP stroke
gr

%%IncludeResource: font Helvetica
/Helvetica /ISOLatin1Encoding 168 FMSR

 585 2911 mt  -90 rotate
(megabytes) s
90 rotate
3515 4974 mt 
(N) s
1 sg
0 713 1295 0 0 -713 4900 4554 4 MP
PP
-1295 0 0 713 1295 0 0 -713 4900 4554 5 MP stroke
4 w
DO
SO
6 w
0 sg
4900 4554 mt 6195 4554 L
4900 3841 mt 6195 3841 L
4900 4554 mt 4900 3841 L
6195 4554 mt 6195 3841 L
4900 4554 mt 6195 4554 L
4900 4554 mt 4900 3841 L
4900 4554 mt 6195 4554 L
4900 3841 mt 6195 3841 L
4900 4554 mt 4900 3841 L
6195 4554 mt 6195 3841 L
%%IncludeResource: font Helvetica
/Helvetica /ISOLatin1Encoding 120 FMSR

5233 3963 mt 
(RK3    measured) s
5233 4101 mt 
(CNAB measured) s
5233 4239 mt 
(RK3    estimate) s
5233 4377 mt 
(CNAB estimate) s
5233 4515 mt 
(minimal estimate) s
gs 4900 3841 1296 714 rc
gs 4993 3850 147 147 rc
5041 3898 mt 5091 3948 L
5091 3898 mt 5041 3948 L
gr

gs 4993 3988 147 147 rc
  36   36 5066 4061 FO
gr

DO
200 0 4966 4199 2 MP stroke
SO
DA
200 0 4966 4337 2 MP stroke
SO
200 0 4966 4476 2 MP stroke
gr


end

eplot
%%EndObject

epage
end

showpage

%%Trailer
%%EOF
