%!PS-Adobe-3.0 EPSF-3.0
%%Creator: MATLAB, The Mathworks, Inc.
%%Title: schematic.eps
%%CreationDate: 10/05/2003  10:40:52
%%DocumentNeededFonts: Helvetica
%%DocumentProcessColors: Cyan Magenta Yellow Black
%%LanguageLevel: 2
%%Pages: 1
%%BoundingBox:   142   282   491   489
%%EndComments

%%BeginProlog
% MathWorks dictionary
/MathWorks 160 dict begin
% definition operators
/bdef {bind def} bind def
/ldef {load def} bind def
/xdef {exch def} bdef
/xstore {exch store} bdef
% operator abbreviations
/c  /clip ldef
/cc /concat ldef
/cp /closepath ldef
/gr /grestore ldef
/gs /gsave ldef
/mt /moveto ldef
/np /newpath ldef
/cm /currentmatrix ldef
/sm /setmatrix ldef
/rm /rmoveto ldef
/rl /rlineto ldef
/s /show ldef
/sc {setcmykcolor} bdef
/sr /setrgbcolor ldef
/sg /setgray ldef
/w /setlinewidth ldef
/j /setlinejoin ldef
/cap /setlinecap ldef
/rc {rectclip} bdef
/rf {rectfill} bdef
% page state control
/pgsv () def
/bpage {/pgsv save def} bdef
/epage {pgsv restore} bdef
/bplot /gsave ldef
/eplot {stroke grestore} bdef
% orientation switch
/portraitMode 0 def /landscapeMode 1 def /rotateMode 2 def
% coordinate system mappings
/dpi2point 0 def
% font control
/FontSize 0 def
/FMS {/FontSize xstore findfont [FontSize 0 0 FontSize neg 0 0]
  makefont setfont} bdef
/reencode {exch dup where {pop load} {pop StandardEncoding} ifelse
  exch dup 3 1 roll findfont dup length dict begin
  { 1 index /FID ne {def}{pop pop} ifelse } forall
  /Encoding exch def currentdict end definefont pop} bdef
/isroman {findfont /CharStrings get /Agrave known} bdef
/FMSR {3 1 roll 1 index dup isroman {reencode} {pop pop} ifelse
  exch FMS} bdef
/csm {1 dpi2point div -1 dpi2point div scale neg translate
 dup landscapeMode eq {pop -90 rotate}
  {rotateMode eq {90 rotate} if} ifelse} bdef
% line types: solid, dotted, dashed, dotdash
/SO { [] 0 setdash } bdef
/DO { [.5 dpi2point mul 4 dpi2point mul] 0 setdash } bdef
/DA { [6 dpi2point mul] 0 setdash } bdef
/DD { [.5 dpi2point mul 4 dpi2point mul 6 dpi2point mul 4
  dpi2point mul] 0 setdash } bdef
% macros for lines and objects
/L {lineto stroke} bdef
/MP {3 1 roll moveto 1 sub {rlineto} repeat} bdef
/AP {{rlineto} repeat} bdef
/PDlw -1 def
/W {/PDlw currentlinewidth def setlinewidth} def
/PP {closepath eofill} bdef
/DP {closepath stroke} bdef
/MR {4 -2 roll moveto dup  0 exch rlineto exch 0 rlineto
  neg 0 exch rlineto closepath} bdef
/FR {MR stroke} bdef
/PR {MR fill} bdef
/L1i {{currentfile picstr readhexstring pop} image} bdef
/tMatrix matrix def
/MakeOval {newpath tMatrix currentmatrix pop translate scale
0 0 1 0 360 arc tMatrix setmatrix} bdef
/FO {MakeOval stroke} bdef
/PO {MakeOval fill} bdef
/PD {currentlinecap 1 cap 3 1 roll 2 copy mt lineto stroke
   cap PDlw -1 eq not {PDlw w /PDlw -1 def} if} def
/FA {newpath tMatrix currentmatrix pop translate scale
  0 0 1 5 -2 roll arc tMatrix setmatrix stroke} bdef
/PA {newpath tMatrix currentmatrix pop	translate 0 0 moveto scale
  0 0 1 5 -2 roll arc closepath tMatrix setmatrix fill} bdef
/FAn {newpath tMatrix currentmatrix pop translate scale
  0 0 1 5 -2 roll arcn tMatrix setmatrix stroke} bdef
/PAn {newpath tMatrix currentmatrix pop translate 0 0 moveto scale
  0 0 1 5 -2 roll arcn closepath tMatrix setmatrix fill} bdef
/vradius 0 def /hradius 0 def /lry 0 def
/lrx 0 def /uly 0 def /ulx 0 def /rad 0 def
/MRR {/vradius xdef /hradius xdef /lry xdef /lrx xdef /uly xdef
  /ulx xdef newpath tMatrix currentmatrix pop ulx hradius add uly
  vradius add translate hradius vradius scale 0 0 1 180 270 arc 
  tMatrix setmatrix lrx hradius sub uly vradius add translate
  hradius vradius scale 0 0 1 270 360 arc tMatrix setmatrix
  lrx hradius sub lry vradius sub translate hradius vradius scale
  0 0 1 0 90 arc tMatrix setmatrix ulx hradius add lry vradius sub
  translate hradius vradius scale 0 0 1 90 180 arc tMatrix setmatrix
  closepath} bdef
/FRR {MRR stroke } bdef
/PRR {MRR fill } bdef
/MlrRR {/lry xdef /lrx xdef /uly xdef /ulx xdef /rad lry uly sub 2 div def
  newpath tMatrix currentmatrix pop ulx rad add uly rad add translate
  rad rad scale 0 0 1 90 270 arc tMatrix setmatrix lrx rad sub lry rad
  sub translate rad rad scale 0 0 1 270 90 arc tMatrix setmatrix
  closepath} bdef
/FlrRR {MlrRR stroke } bdef
/PlrRR {MlrRR fill } bdef
/MtbRR {/lry xdef /lrx xdef /uly xdef /ulx xdef /rad lrx ulx sub 2 div def
  newpath tMatrix currentmatrix pop ulx rad add uly rad add translate
  rad rad scale 0 0 1 180 360 arc tMatrix setmatrix lrx rad sub lry rad
  sub translate rad rad scale 0 0 1 0 180 arc tMatrix setmatrix
  closepath} bdef
/FtbRR {MtbRR stroke } bdef
/PtbRR {MtbRR fill } bdef
/stri 6 array def /dtri 6 array def
/smat 6 array def /dmat 6 array def
/tmat1 6 array def /tmat2 6 array def /dif 3 array def
/asub {/ind2 exch def /ind1 exch def dup dup
  ind1 get exch ind2 get sub exch } bdef
/tri_to_matrix {
  2 0 asub 3 1 asub 4 0 asub 5 1 asub
  dup 0 get exch 1 get 7 -1 roll astore } bdef
/compute_transform {
  dmat dtri tri_to_matrix tmat1 invertmatrix 
  smat stri tri_to_matrix tmat2 concatmatrix } bdef
/ds {stri astore pop} bdef
/dt {dtri astore pop} bdef
/db {2 copy /cols xdef /rows xdef mul dup string
  currentfile 
  3 index 0 eq {/ASCIIHexDecode filter}
  {/ASCII85Decode filter 3 index 2 eq {/RunLengthDecode filter} if }
  ifelse exch readstring pop
  /bmap xdef pop pop} bdef
/it {gs np dtri aload pop moveto lineto lineto cp c
  cols rows 8 compute_transform 
  {bmap} image gr}bdef
/il {newpath moveto lineto stroke}bdef
currentdict end def
%%EndProlog

%%BeginSetup
MathWorks begin

0 cap

end
%%EndSetup

%%Page: 1 1
%%BeginPageSetup
%%PageBoundingBox:   142   282   491   489
MathWorks begin
bpage
%%EndPageSetup

%%BeginObject: obj1
bplot

/dpi2point 12 def
portraitMode 0204 7344 csm

 1509  1466  4182  2494 rc
93 dict begin %Colortable dictionary
/c0 { 0 0 0 sr} bdef
/c1 { 1 1 1 sr} bdef
/c2 { 1 0 0 sr} bdef
/c3 { 0 1 0 sr} bdef
/c4 { 0 0 1 sr} bdef
/c5 { 1 1 0 sr} bdef
/c6 { 1 0 1 sr} bdef
/c7 { 0 1 1 sr} bdef
c0
1 j
1 sg
   0    0 6913 5185 rf
6 w
gs 899 389 5357 4226 rc
0.9 sg
-3060 0 918 -482 3060 0 1664 3406 4 MP
PP
0 sg
-918 482 -3060 0 918 -482 3060 0 1664 3406 5 MP stroke
0.9 sg
-3060 0 918 -483 3060 0 1664 2199 4 MP
PP
0 sg
-918 483 -3060 0 918 -483 3060 0 1664 2199 5 MP stroke
0 -1207 1664 3406 2 MP stroke
0 -1207 4724 3406 2 MP stroke
0 -1208 5642 2924 2 MP stroke
0 -725 2582 2924 2 MP stroke
DO
0 -483 2582 2199 2 MP stroke
SO
0 -1207 3194 3406 2 MP stroke
-121 -24 -108 -25 -94 -24 -84 -24 -72 -24 -63 -24 -54 -24 -47 -24 
-39 -25 -33 -24 -27 -24 -23 -24 -18 -24 -15 -24 -12 -24 -9 -25 
-7 -24 -5 -24 -4 -24 -2 -24 -2 -24 -1 -24 -1 -25 0 -24 
-1 -24 1 -24 0 -24 1 -24 1 -24 2 -25 2 -24 4 -24 
5 -24 7 -24 9 -24 12 -24 15 -25 18 -24 23 -24 27 -24 
33 -24 39 -24 47 -24 54 -25 63 -24 72 -24 84 -24 94 -24 
108 -24 121 -24 3194 3406 51 MP stroke
-479 0 3673 3286 2 MP stroke
-61 24 3673 3286 2 MP stroke
-61 -24 3673 3286 2 MP stroke
-715 0 3909 3165 2 MP stroke
-61 24 3909 3165 2 MP stroke
-61 -24 3909 3165 2 MP stroke
-810 0 4004 3044 2 MP stroke
-61 24 4004 3044 2 MP stroke
-61 -24 4004 3044 2 MP stroke
-837 0 4031 2924 2 MP stroke
-61 24 4031 2924 2 MP stroke
-61 -25 4031 2924 2 MP stroke
-842 0 4036 2803 2 MP stroke
-62 24 4036 2803 2 MP stroke
-62 -24 4036 2803 2 MP stroke
-837 0 4031 2682 2 MP stroke
-61 24 4031 2682 2 MP stroke
-61 -24 4031 2682 2 MP stroke
-810 0 4004 2561 2 MP stroke
-61 25 4004 2561 2 MP stroke
-61 -24 4004 2561 2 MP stroke
-715 0 3909 2441 2 MP stroke
-61 24 3909 2441 2 MP stroke
-61 -24 3909 2441 2 MP stroke
-479 0 3673 2320 2 MP stroke
-61 24 3673 2320 2 MP stroke
-61 -24 3673 2320 2 MP stroke
gr

0 sg
%%IncludeResource: font Helvetica
/Helvetica /ISOLatin1Encoding 120 FMSR

4036 2543 mt 
(U\(y\)) s
gs 899 389 5357 4226 rc
0 -725 1664 3769 2 MP stroke
-31 49 1664 3044 2 MP stroke
30 49 1664 3044 2 MP stroke
gr

1755 3086 mt 
(y) s
gs 899 389 5357 4226 rc
612 0 1664 3769 2 MP stroke
-61 24 2276 3769 2 MP stroke
-61 -25 2276 3769 2 MP stroke
gr

2276 3931 mt 
(x) s
gs 899 389 5357 4226 rc
551 -290 1664 3769 2 MP stroke
-31 48 2215 3479 2 MP stroke
-62 0 2215 3479 2 MP stroke
gr

2276 3545 mt 
(z) s
1541 3859 mt 
(0) s
1511 2241 mt 
(b) s
1511 3448 mt 
(a) s
3806 1625 mt 
(L) s
%%IncludeResource: font Helvetica
/Helvetica /ISOLatin1Encoding 96 FMSR

3872 1685 mt 
(x) s
%%IncludeResource: font Helvetica
/Helvetica /ISOLatin1Encoding 120 FMSR

5260 3279 mt 
(L) s
%%IncludeResource: font Helvetica
/Helvetica /ISOLatin1Encoding 96 FMSR

5326 3339 mt 
(z) s

end

eplot
%%EndObject

epage
end

showpage

%%Trailer
%%EOF
