%!PS-Adobe-3.0 EPSF-3.0
%%Creator: MATLAB, The Mathworks, Inc.
%%Title: walllaw.eps
%%CreationDate: 02/02/2004  10:21:04
%%DocumentNeededFonts: Helvetica
%%DocumentProcessColors: Cyan Magenta Yellow Black
%%LanguageLevel: 2
%%Pages: 1
%%BoundingBox:    55   185   552   591
%%EndComments

%%BeginProlog
% MathWorks dictionary
/MathWorks 160 dict begin
% definition operators
/bdef {bind def} bind def
/ldef {load def} bind def
/xdef {exch def} bdef
/xstore {exch store} bdef
% operator abbreviations
/c  /clip ldef
/cc /concat ldef
/cp /closepath ldef
/gr /grestore ldef
/gs /gsave ldef
/mt /moveto ldef
/np /newpath ldef
/cm /currentmatrix ldef
/sm /setmatrix ldef
/rm /rmoveto ldef
/rl /rlineto ldef
/s /show ldef
/sc {setcmykcolor} bdef
/sr /setrgbcolor ldef
/sg /setgray ldef
/w /setlinewidth ldef
/j /setlinejoin ldef
/cap /setlinecap ldef
/rc {rectclip} bdef
/rf {rectfill} bdef
% page state control
/pgsv () def
/bpage {/pgsv save def} bdef
/epage {pgsv restore} bdef
/bplot /gsave ldef
/eplot {stroke grestore} bdef
% orientation switch
/portraitMode 0 def /landscapeMode 1 def /rotateMode 2 def
% coordinate system mappings
/dpi2point 0 def
% font control
/FontSize 0 def
/FMS {/FontSize xstore findfont [FontSize 0 0 FontSize neg 0 0]
  makefont setfont} bdef
/reencode {exch dup where {pop load} {pop StandardEncoding} ifelse
  exch dup 3 1 roll findfont dup length dict begin
  { 1 index /FID ne {def}{pop pop} ifelse } forall
  /Encoding exch def currentdict end definefont pop} bdef
/isroman {findfont /CharStrings get /Agrave known} bdef
/FMSR {3 1 roll 1 index dup isroman {reencode} {pop pop} ifelse
  exch FMS} bdef
/csm {1 dpi2point div -1 dpi2point div scale neg translate
 dup landscapeMode eq {pop -90 rotate}
  {rotateMode eq {90 rotate} if} ifelse} bdef
% line types: solid, dotted, dashed, dotdash
/SO { [] 0 setdash } bdef
/DO { [.5 dpi2point mul 4 dpi2point mul] 0 setdash } bdef
/DA { [6 dpi2point mul] 0 setdash } bdef
/DD { [.5 dpi2point mul 4 dpi2point mul 6 dpi2point mul 4
  dpi2point mul] 0 setdash } bdef
% macros for lines and objects
/L {lineto stroke} bdef
/MP {3 1 roll moveto 1 sub {rlineto} repeat} bdef
/AP {{rlineto} repeat} bdef
/PDlw -1 def
/W {/PDlw currentlinewidth def setlinewidth} def
/PP {closepath eofill} bdef
/DP {closepath stroke} bdef
/MR {4 -2 roll moveto dup  0 exch rlineto exch 0 rlineto
  neg 0 exch rlineto closepath} bdef
/FR {MR stroke} bdef
/PR {MR fill} bdef
/L1i {{currentfile picstr readhexstring pop} image} bdef
/tMatrix matrix def
/MakeOval {newpath tMatrix currentmatrix pop translate scale
0 0 1 0 360 arc tMatrix setmatrix} bdef
/FO {MakeOval stroke} bdef
/PO {MakeOval fill} bdef
/PD {currentlinecap 1 cap 3 1 roll 2 copy mt lineto stroke
   cap PDlw -1 eq not {PDlw w /PDlw -1 def} if} def
/FA {newpath tMatrix currentmatrix pop translate scale
  0 0 1 5 -2 roll arc tMatrix setmatrix stroke} bdef
/PA {newpath tMatrix currentmatrix pop	translate 0 0 moveto scale
  0 0 1 5 -2 roll arc closepath tMatrix setmatrix fill} bdef
/FAn {newpath tMatrix currentmatrix pop translate scale
  0 0 1 5 -2 roll arcn tMatrix setmatrix stroke} bdef
/PAn {newpath tMatrix currentmatrix pop translate 0 0 moveto scale
  0 0 1 5 -2 roll arcn closepath tMatrix setmatrix fill} bdef
/vradius 0 def /hradius 0 def /lry 0 def
/lrx 0 def /uly 0 def /ulx 0 def /rad 0 def
/MRR {/vradius xdef /hradius xdef /lry xdef /lrx xdef /uly xdef
  /ulx xdef newpath tMatrix currentmatrix pop ulx hradius add uly
  vradius add translate hradius vradius scale 0 0 1 180 270 arc 
  tMatrix setmatrix lrx hradius sub uly vradius add translate
  hradius vradius scale 0 0 1 270 360 arc tMatrix setmatrix
  lrx hradius sub lry vradius sub translate hradius vradius scale
  0 0 1 0 90 arc tMatrix setmatrix ulx hradius add lry vradius sub
  translate hradius vradius scale 0 0 1 90 180 arc tMatrix setmatrix
  closepath} bdef
/FRR {MRR stroke } bdef
/PRR {MRR fill } bdef
/MlrRR {/lry xdef /lrx xdef /uly xdef /ulx xdef /rad lry uly sub 2 div def
  newpath tMatrix currentmatrix pop ulx rad add uly rad add translate
  rad rad scale 0 0 1 90 270 arc tMatrix setmatrix lrx rad sub lry rad
  sub translate rad rad scale 0 0 1 270 90 arc tMatrix setmatrix
  closepath} bdef
/FlrRR {MlrRR stroke } bdef
/PlrRR {MlrRR fill } bdef
/MtbRR {/lry xdef /lrx xdef /uly xdef /ulx xdef /rad lrx ulx sub 2 div def
  newpath tMatrix currentmatrix pop ulx rad add uly rad add translate
  rad rad scale 0 0 1 180 360 arc tMatrix setmatrix lrx rad sub lry rad
  sub translate rad rad scale 0 0 1 0 180 arc tMatrix setmatrix
  closepath} bdef
/FtbRR {MtbRR stroke } bdef
/PtbRR {MtbRR fill } bdef
/stri 6 array def /dtri 6 array def
/smat 6 array def /dmat 6 array def
/tmat1 6 array def /tmat2 6 array def /dif 3 array def
/asub {/ind2 exch def /ind1 exch def dup dup
  ind1 get exch ind2 get sub exch } bdef
/tri_to_matrix {
  2 0 asub 3 1 asub 4 0 asub 5 1 asub
  dup 0 get exch 1 get 7 -1 roll astore } bdef
/compute_transform {
  dmat dtri tri_to_matrix tmat1 invertmatrix 
  smat stri tri_to_matrix tmat2 concatmatrix } bdef
/ds {stri astore pop} bdef
/dt {dtri astore pop} bdef
/db {2 copy /cols xdef /rows xdef mul dup 3 mul string
  currentfile 
  3 index 0 eq {/ASCIIHexDecode filter}
  {/ASCII85Decode filter 3 index 2 eq {/RunLengthDecode filter} if }
  ifelse exch readstring pop
  dup 0 3 index getinterval /rbmap xdef
  dup 2 index dup getinterval /gbmap xdef
  1 index dup 2 mul exch getinterval /bbmap xdef pop pop}bdef
/it {gs np dtri aload pop moveto lineto lineto cp c
  cols rows 8 compute_transform 
  rbmap gbmap bbmap true 3 colorimage gr}bdef
/il {newpath moveto lineto stroke}bdef
currentdict end def
%%EndProlog

%%BeginSetup
MathWorks begin

0 cap

end
%%EndSetup

%%Page: 1 1
%%BeginPageSetup
%%PageBoundingBox:    55   185   552   591
MathWorks begin
bpage
%%EndPageSetup

%%BeginObject: obj1
bplot

/dpi2point 12 def
portraitMode 0204 7344 csm

  462   247  5966  4868 rc
92 dict begin %Colortable dictionary
/c0 { 0 0 0 sr} bdef
/c1 { 1 1 1 sr} bdef
/c2 { 1 0 0 sr} bdef
/c3 { 0 1 0 sr} bdef
/c4 { 0 0 1 sr} bdef
/c5 { 1 1 0 sr} bdef
/c6 { 1 0 1 sr} bdef
/c7 { 0 1 1 sr} bdef
c0
1 j
1 sg
   0    0 6913 5185 rf
6 w
0 4225 5356 0 0 -4225 899 4614 4 MP
PP
-5356 0 0 4225 5356 0 0 -4225 899 4614 5 MP stroke
4 w
DO
SO
6 w
0 sg
 899 4614 mt 6255 4614 L
 899  389 mt 6255  389 L
 899 4614 mt  899  389 L
6255 4614 mt 6255  389 L
 899 4614 mt 6255 4614 L
 899 4614 mt  899  389 L
2238 4614 mt 2238 4587 L
2238  389 mt 2238  415 L
2176 4614 mt 2176 4587 L
2176  389 mt 2176  415 L
2108 4614 mt 2108 4587 L
2108  389 mt 2108  415 L
2030 4614 mt 2030 4587 L
2030  389 mt 2030  415 L
1940 4614 mt 1940 4587 L
1940  389 mt 1940  415 L
1834 4614 mt 1834 4587 L
1834  389 mt 1834  415 L
1705 4614 mt 1705 4587 L
1705  389 mt 1705  415 L
1537 4614 mt 1537 4587 L
1537  389 mt 1537  415 L
1302 4614 mt 1302 4587 L
1302  389 mt 1302  415 L
2238 4614 mt 2238 4560 L
2238  389 mt 2238  442 L
%%IncludeResource: font Helvetica
/Helvetica /ISOLatin1Encoding 168 FMSR

2114 4856 mt 
(10) s
%%IncludeResource: font Helvetica
/Helvetica /ISOLatin1Encoding 112 FMSR

2300 4752 mt 
(0) s
2641 4614 mt 2641 4587 L
2641  389 mt 2641  415 L
2876 4614 mt 2876 4587 L
2876  389 mt 2876  415 L
3044 4614 mt 3044 4587 L
3044  389 mt 3044  415 L
3173 4614 mt 3173 4587 L
3173  389 mt 3173  415 L
3279 4614 mt 3279 4587 L
3279  389 mt 3279  415 L
3369 4614 mt 3369 4587 L
3369  389 mt 3369  415 L
3447 4614 mt 3447 4587 L
3447  389 mt 3447  415 L
3515 4614 mt 3515 4587 L
3515  389 mt 3515  415 L
3577 4614 mt 3577 4587 L
3577  389 mt 3577  415 L
3577 4614 mt 3577 4560 L
3577  389 mt 3577  442 L
%%IncludeResource: font Helvetica
/Helvetica /ISOLatin1Encoding 168 FMSR

3453 4856 mt 
(10) s
%%IncludeResource: font Helvetica
/Helvetica /ISOLatin1Encoding 112 FMSR

3639 4752 mt 
(1) s
3980 4614 mt 3980 4587 L
3980  389 mt 3980  415 L
4215 4614 mt 4215 4587 L
4215  389 mt 4215  415 L
4383 4614 mt 4383 4587 L
4383  389 mt 4383  415 L
4512 4614 mt 4512 4587 L
4512  389 mt 4512  415 L
4618 4614 mt 4618 4587 L
4618  389 mt 4618  415 L
4708 4614 mt 4708 4587 L
4708  389 mt 4708  415 L
4786 4614 mt 4786 4587 L
4786  389 mt 4786  415 L
4854 4614 mt 4854 4587 L
4854  389 mt 4854  415 L
4916 4614 mt 4916 4587 L
4916  389 mt 4916  415 L
4916 4614 mt 4916 4560 L
4916  389 mt 4916  442 L
%%IncludeResource: font Helvetica
/Helvetica /ISOLatin1Encoding 168 FMSR

4792 4856 mt 
(10) s
%%IncludeResource: font Helvetica
/Helvetica /ISOLatin1Encoding 112 FMSR

4978 4752 mt 
(2) s
5319 4614 mt 5319 4587 L
5319  389 mt 5319  415 L
5554 4614 mt 5554 4587 L
5554  389 mt 5554  415 L
5722 4614 mt 5722 4587 L
5722  389 mt 5722  415 L
5851 4614 mt 5851 4587 L
5851  389 mt 5851  415 L
5957 4614 mt 5957 4587 L
5957  389 mt 5957  415 L
6047 4614 mt 6047 4587 L
6047  389 mt 6047  415 L
6125 4614 mt 6125 4587 L
6125  389 mt 6125  415 L
6193 4614 mt 6193 4587 L
6193  389 mt 6193  415 L
6255 4614 mt 6255 4587 L
6255  389 mt 6255  415 L
6255 4614 mt 6255 4560 L
6255  389 mt 6255  442 L
%%IncludeResource: font Helvetica
/Helvetica /ISOLatin1Encoding 168 FMSR

6131 4856 mt 
(10) s
%%IncludeResource: font Helvetica
/Helvetica /ISOLatin1Encoding 112 FMSR

6317 4752 mt 
(3) s
 899 4614 mt  952 4614 L
6255 4614 mt 6201 4614 L
%%IncludeResource: font Helvetica
/Helvetica /ISOLatin1Encoding 168 FMSR

 771 4676 mt 
(0) s
 899 3769 mt  952 3769 L
6255 3769 mt 6201 3769 L
 771 3831 mt 
(5) s
 899 2924 mt  952 2924 L
6255 2924 mt 6201 2924 L
 678 2986 mt 
(10) s
 899 2079 mt  952 2079 L
6255 2079 mt 6201 2079 L
 678 2141 mt 
(15) s
 899 1233 mt  952 1233 L
6255 1233 mt 6201 1233 L
 678 1295 mt 
(20) s
 899  389 mt  952  389 L
6255  389 mt 6201  389 L
 678  451 mt 
(25) s
 899 4614 mt 6255 4614 L
 899  389 mt 6255  389 L
 899 4614 mt  899  389 L
6255 4614 mt 6255  389 L
gs 899 389 5357 4226 rc
-785 48 -471 82 -334 113 -259 144 -212 172 -178 193 -155 204 -136 201 
-121 188 -110 167 -100 144 -92 124 -85 105 -78 90 -74 77 -69 68 
-64 60 -61 53 -58 49 -55 45 -51 42 -50 39 -47 37 -45 34 
-43 34 -41 31 -39 31 -38 29 -36 27 -35 26 -34 24 -32 24 
-31 22 -30 21 -29 20 -28 19 -27 18 -26 16 -26 16 -24 14 
-24 13 -22 11 -23 9 -21 7 -21 5 -20 3 -19 1 -19 -1 
5277 1697 49 MP stroke
DA
/c8 { 0.000000 0.000000 1.000000 sr} bdef
c8
15 -85 17 -84 17 -85 17 -84 18 -85 18 -84 19 -85 19 -84 
21 -85 21 -84 21 -85 23 -84 24 -85 24 -84 26 -85 27 -84 
28 -85 29 -84 31 -85 33 -84 35 -85 37 -84 40 -85 42 -84 
46 -85 50 -84 54 -85 60 -84 67 -85 76 -84 87 -85 102 -84 
124 -85 158 -84 218 -85 353 -84 1041 -85 899 4597 38 MP stroke
2 -1 2 -2 3 -2 2 -1 2 -2 3 -2 2 -2 3 -1 
2 -2 2 -2 3 -2 2 -1 3 -2 2 -2 3 -2 2 -2 
3 -1 2 -2 3 -2 2 -2 3 -2 2 -2 3 -1 2 -2 
3 -2 3 -2 2 -2 3 -2 2 -2 3 -2 3 -2 2 -2 
3 -1 3 -2 2 -2 3 -2 3 -2 3 -2 2 -2 3 -2 
3 -2 3 -2 2 -2 3 -2 3 -3 3 -2 3 -2 3 -2 
3 -2 2 -2 3 -2 3 -2 3 -2 3 -2 3 -3 3 -2 
3 -2 3 -2 3 -2 3 -3 3 -2 3 -2 4 -2 3 -3 
3 -2 3 -2 3 -2 3 -3 3 -2 4 -2 3 -3 3 -2 
3 -3 4 -2 3 -2 3 -3 4 -2 3 -3 4 -2 3 -3 
3 -2 4 -3 3 -2 4 -3 3 -2 4 -3 3 -2 4 -3 
4 -3 3 -2 4 -3 3 -3 4 -2 4 -3 4 -3 3 -2 
4 -3 4 -3 4 -3 4 -3 4 -2 4 -3 3 -3 4 -3 
4 -3 4 -3 5 -3 4 -3 4 -3 4 -3 4 -3 4 -3 
4 -3 5 -3 4 -3 4 -3 5 -3 4 -4 4 -3 5 -3 
4 -3 5 -4 5 -3 4 -3 5 -4 4 -3 5 -3 5 -4 
5 -3 4 -4 5 -3 5 -4 5 -3 5 -4 5 -4 5 -3 
5 -4 6 -4 5 -4 5 -4 5 -3 6 -4 5 -4 6 -4 
5 -4 6 -4 5 -4 6 -4 6 -5 5 -4 6 -4 6 -4 
6 -5 6 -4 6 -4 6 -5 7 -4 6 -5 6 -5 7 -4 
6 -5 7 -5 6 -5 7 -5 7 -4 7 -5 7 -6 7 -5 
7 -5 7 -5 8 -5 7 -6 7 -5 8 -6 8 -5 8 -6 
8 -6 8 -6 8 -6 8 -6 8 -6 9 -6 8 -6 9 -6 
9 -7 9 -6 9 -7 9 -7 10 -7 10 -7 9 -7 10 -7 
10 -7 11 -8 10 -7 11 -8 11 -8 11 -8 11 -8 12 -9 
11 -8 12 -9 13 -9 12 -9 13 -9 13 -10 13 -9 14 -10 
14 -11 14 -10 15 -11 15 -11 16 -11 16 -11 16 -12 17 -13 
17 -12 18 -13 19 -14 19 -13 19 -15 21 -15 21 -15 22 -16 
23 -17 23 -17 25 -18 26 -19 27 -19 28 -21 30 -21 32 -23 
33 -24 35 -26 38 -27 40 -29 43 -32 46 -34 51 -36 55 -41 
62 -44 68 -50 78 -56 90 -65 106 -78 129 -94 168 -121 235 -172 
2641 3476 249 MP stroke
gr

c8
DA
0 sg
5151 1306 mt 
(2.5 ln y) s
%%IncludeResource: font Helvetica
/Helvetica /ISOLatin1Encoding 132 FMSR

5692 1390 mt 
(+) s
%%IncludeResource: font Helvetica
/Helvetica /ISOLatin1Encoding 168 FMSR

5769 1306 mt 
( + 5) s
3885 1306 mt 
(y) s
%%IncludeResource: font Helvetica
/Helvetica /ISOLatin1Encoding 132 FMSR

3969 1390 mt 
(+) s
%%IncludeResource: font Helvetica
/Helvetica /ISOLatin1Encoding 168 FMSR

3850 3165 mt 
(U) s
%%IncludeResource: font Helvetica
/Helvetica /ISOLatin1Encoding 132 FMSR

3971 3249 mt 
(+) s
%%IncludeResource: font Helvetica
/Helvetica /ISOLatin1Encoding 168 FMSR

3495 5000 mt 
(y) s
%%IncludeResource: font Helvetica
/Helvetica /ISOLatin1Encoding 132 FMSR

3579 5084 mt 
(+) s
%%IncludeResource: font Helvetica
/Helvetica /ISOLatin1Encoding 168 FMSR

 623 2601 mt  -90 rotate
(U) s
90 rotate
%%IncludeResource: font Helvetica
/Helvetica /ISOLatin1Encoding 132 FMSR

 707 2480 mt  -90 rotate
(+) s
90 rotate
SO

end

eplot
%%EndObject

epage
end

showpage

%%Trailer
%%EOF
